<svg xmlns="http://www.w3.org/2000/svg" id="svg2" width="32" height="32" version="1.1">
    <defs id="rounded">
        <style type="text/css" id="current-color-scheme">
            .ColorScheme-Text{color:#eff0f1}
        </style>
    </defs>
    <g id="22-22-amarok" transform="translate(32)">
        <path id="path7" style="opacity:1;fill:currentColor" class="ColorScheme-Text" d="M11 13a8 8 0 1 0 7.166 4.44c-.006-.012-.024-.029-.03-.04l.007-.002c.185-.218.28-.468.28-.71a1.27 1.27 0 0 0-.128-.493l.006.004s-.001-.124-.076-.299a1.488 1.488 0 0 0-.174-.3s-.238.037-.375.062c-.13.024-.473.214-.514.236C15.45 14.221 13.751 12.958 11 13Zm.2.4a7.4 7.4 0 0 1 5.605 2.582c-.772.191-1.987.634-2.412.74-.495.124-.726.236-1.52.16-.905-.085-1.31-.092-1.549-.085-.356-.032-.537-.11-.537-.11l.031.352c-.237.18-.713.443-1.693.709-.636.07-1.166-.124-1.484.053-.319.177-1.328.618-1.84.742-.513.124-.892.356-1.201.457-.489.16.967 2.494 1.6 2.8l-.401.417c-.44.3-.787.32-.787.32l.023.24c-.21.112-.406.188-.588.252A7.5 7.5 0 0 1 4 20.5a7.5 7.5 0 0 1 1.104-3.895 7.4 7.4 0 0 1 6.095-3.205Zm6.65 4.166a7.4 7.4 0 0 1 .75 3.235 7.4 7.4 0 0 1-3.325 6.172 7.5 7.5 0 0 1-2.066.824c.03-.235.061-.475.084-.713.174-.255.406-.26.406-.26s-.299-.85-.27-1.873c.038-.243.1-.472.18-.69h.303s-.038-.417.133-.841c.562-.854 1.329-1.425 1.656-1.676.309-.237 1.733-.601 2.033-.672.3-.07.584-.548.602-.69.018-.14-.09-.405-.09-.405l-.426-.096c.106.075.046.15-.132.182-.057.01-.137.014-.225.015 0 0-.093-.363-.193-.394-.087-.027-.313.257-.31.355a1.553 1.553 0 0 1-.26-.064c-.276-.1-.575-.163-.575-.163s.3-.675.725-1.337c.27-.423.708-.73 1-.909zm-5.485.157c.486-.004.848.14.848.14s.047.456-1.318 1.272c-.42.25-1.52.416-1.52.416s-.024-.576.395-1.074a2.04 2.04 0 0 1 1.595-.754zM6.094 18.99a.376.376 0 0 1 .105.01c.2.063.638.858.4 1.2l.401.4c.8-.8 1.994-.243 2.2.3.284.754.225.664-.956.836-.5.073-1.52-.108-1.924-.418-.403-.31-1.439-1.95-1.351-2.037.076-.076.809-.282 1.125-.29zm11.508.6c-.068.024-.13.308-.13.308s.053.028.323-.007c.073-.018-.126-.325-.193-.301z"/>
        <path id="path9" style="opacity:.001" d="M0 10v22h22V10Z"/>
    </g>
    <g id="amarok">
        <path id="path819" style="opacity:.001" d="M0 0v32h32V0Z"/>
        <path id="path817" style="opacity:1;fill:currentColor" class="ColorScheme-Text" d="M16 4.002C9.373 4.002 4 9.374 4 16 4 22.628 9.373 28 16 28s12-5.372 12-12c0-1.917-.45-3.732-1.251-5.34-.01-.017-.036-.042-.044-.058l.009-.003c.278-.328.422-.703.422-1.067 0-.262-.102-.533-.194-.738l.01.006s-.002-.186-.115-.448c-.112-.263-.26-.451-.26-.451s-.357.056-.563.093c-.195.036-.71.32-.77.355-2.57-2.516-5.118-4.41-9.244-4.347Zm.299.6a11.1 11.1 0 0 1 8.408 3.873c-1.158.286-2.98.95-3.618 1.11-.743.186-1.089.353-2.28.24-1.356-.128-1.966-.139-2.323-.129-.534-.047-.805-.164-.805-.164l.047.528c-.356.27-1.07.664-2.54 1.063-.955.106-1.75-.186-2.227.08-.477.264-1.99.927-2.76 1.112-.769.186-1.338.535-1.802.686-.732.239 1.452 3.74 2.4 4.2l-.6.625c-.66.45-1.181.48-1.181.48l.035.36a6.237 6.237 0 0 1-.882.379c-.44-1.217-.667-2.5-.671-3.794a11.249 11.249 0 0 1 1.655-5.842A11.1 11.1 0 0 1 16.3 4.602Zm9.975 6.249A11.099 11.099 0 0 1 27.4 15.7a11.1 11.1 0 0 1-4.986 9.258c-.966.564-2.01.98-3.1 1.236.046-.351.092-.711.126-1.069.261-.383.61-.39.61-.39s-.449-1.274-.404-2.809c.055-.364.15-.708.27-1.034h.453s-.057-.626.2-1.263c.842-1.28 1.993-2.136 2.484-2.513.463-.356 2.599-.902 3.05-1.008.45-.106.875-.822.902-1.034.026-.212-.135-.61-.135-.61l-.639-.143c.16.113.068.226-.199.273a2.193 2.193 0 0 1-.337.023s-.139-.545-.29-.592c-.129-.04-.468.387-.463.533a2.33 2.33 0 0 1-.392-.096c-.413-.15-.861-.243-.861-.243s.449-1.013 1.086-2.007c.407-.634 1.062-1.095 1.5-1.362zm-8.226.234a3.683 3.683 0 0 1 1.271.211s.071.683-1.977 1.907c-.628.375-2.28.624-2.28.624s-.035-.863.592-1.611c.75-.894 1.665-1.124 2.394-1.13zM8.64 12.986a.563.563 0 0 1 .158.015c.3.094.956 1.287.6 1.799l.601.6c1.2-1.2 2.99-.364 3.299.451.427 1.13.338.996-1.433 1.254-.75.11-2.281-.162-2.886-.627-.604-.464-2.158-2.924-2.027-3.055.115-.115 1.214-.424 1.688-.437Zm17.261.9c-.1.036-.193.463-.193.463s.078.041.483-.012c.11-.027-.188-.487-.29-.451z"/>
    </g>
</svg>
