<svg xmlns="http://www.w3.org/2000/svg" id="svg7229" width="32" height="32" version="1.0">
    <defs id="rounded">
        <style type="text/css" id="current-color-scheme">
            .ColorScheme-Text{color:#eff0f1}.ColorScheme-NegativeText{color:#da4453}
        </style>
    </defs>
    <g id="22-22-Unavailable" transform="translate(-265.54 -426.5)">
        <path id="rect1161" style="opacity:.001" d="M169.54 404.5h22v22h-22z"/>
        <g id="g1167" transform="translate(-90 -22)">
            <rect id="rect1163" style="opacity:1;fill:currentColor" class="ColorScheme-NegativeText" width="8" height="8" x="273.54" y="440.5" ry=".8"/>
            <path id="path1165" style="opacity:1;fill:#fff" d="m275.243 441.505-.707.707 2.293 2.293-2.293 2.293.707.707 2.293-2.293 2.293 2.293.707-.707-2.293-2.293 2.293-2.293-.707-.707-2.293 2.293z"/>
        </g>
    </g>
    <g id="22-22-Battery" transform="translate(-246.54 -426.5)">
        <path id="rect968" style="opacity:.001" d="M214.54 404.5h22v22h-22z"/>
        <path id="rect983" style="opacity:1;fill:currentColor" class="ColorScheme-Text" d="M224.036 407.505c-.277 0-.5.223-.5.5v.914h-1.5c-.831 0-1.5.669-1.5 1.5v10.586c0 .831.669 1.5 1.5 1.5h7c.83 0 1.5-.669 1.5-1.5v-10.586c0-.831-.67-1.5-1.5-1.5h-1.5v-.914c0-.277-.223-.5-.5-.5zm-2 2.414h7c.294 0 .5.205.5.5v10.586c0 .294-.206.5-.5.5h-7a.478.478 0 0 1-.5-.5v-10.586c0-.295.205-.5.5-.5z"/>
    </g>
    <g id="22-22-Fill100" transform="translate(-214.54 -426.5)">
        <path id="rect1014" style="opacity:.001" d="M214.54 404.5h22v22h-22z"/>
        <path id="path1016" style="opacity:1;fill:currentColor" class="ColorScheme-Text" d="M224.036 407.505c-.277 0-.5.223-.5.5v.914h-1.5c-.831 0-1.5.669-1.5 1.5v10.586c0 .831.669 1.5 1.5 1.5h7c.83 0 1.5-.669 1.5-1.5v-10.586c0-.831-.67-1.5-1.5-1.5h-1.5v-.914c0-.277-.223-.5-.5-.5z"/>
    </g>
    <g id="22-22-Fill90" transform="translate(-182.54 -426.5)">
        <path id="rect1020" style="opacity:.001" d="M214.54 404.5h22v22h-22z"/>
        <path id="path1022" style="opacity:1;fill:currentColor" class="ColorScheme-Text" d="M224.036 407.505c-.277 0-.5.223-.5.5v.793h-1.5c-.831 0-1.5.669-1.5 1.5v10.707c0 .831.669 1.5 1.5 1.5h7c.83 0 1.5-.669 1.5-1.5v-10.707c0-.831-.67-1.5-1.5-1.5h-1.5v-.793c0-.277-.223-.5-.5-.5zm-2 2.293h7c.294 0 .5.205.5.5v10.707c0 .294-.206.5-.5.5h-7a.478.478 0 0 1-.5-.5v-10.707c0-.295.205-.5.5-.5zm-1.5 1.707.946 10.362 8.35-.078.704-10.284z"/>
    </g>
    <g id="22-22-Fill80" transform="translate(-150.54 -426.5)">
        <path id="rect1069" style="opacity:.001" d="M214.54 404.5h22v22h-22z"/>
        <path id="path1071" style="opacity:1;fill:currentColor" class="ColorScheme-Text" d="M224.036 407.505c-.277 0-.5.223-.5.5v.793h-1.5c-.831 0-1.5.669-1.5 1.5v10.707c0 .831.669 1.5 1.5 1.5h7c.83 0 1.5-.669 1.5-1.5v-10.707c0-.831-.67-1.5-1.5-1.5h-1.5v-.793c0-.277-.223-.5-.5-.5zm-2 2.293h7c.294 0 .5.205.5.5v10.707c0 .294-.206.5-.5.5h-7a.478.478 0 0 1-.5-.5v-10.707c0-.295.205-.5.5-.5zm-1.5 2.707.753 9.348 8.64-.09.607-9.258z"/>
    </g>
    <g id="22-22-Fill70" transform="translate(-118.54 -426.5)">
        <path id="rect1075" style="opacity:.001" d="M214.54 404.5h22v22h-22z"/>
        <path id="path1077" style="opacity:1;fill:currentColor" class="ColorScheme-Text" d="M224.036 407.505c-.277 0-.5.223-.5.5v.793h-1.5c-.831 0-1.5.669-1.5 1.5v10.707c0 .831.669 1.5 1.5 1.5h7c.83 0 1.5-.669 1.5-1.5v-10.707c0-.831-.67-1.484-1.5-1.5h-1.5v-.793c0-.277-.223-.5-.5-.5zm-2 2.293h7c.294 0 .5.205.5.5v10.707c0 .294-.206.5-.5.5h-7a.478.478 0 0 1-.5-.5v-10.707c0-.295.205-.5.5-.5zm-1.5 3.707.803 8.316 8.479-.097.718-8.219z"/>
    </g>
    <g id="22-22-Fill60" transform="translate(-86.54 -426.5)">
        <path id="rect1081" style="opacity:.001" d="M214.54 404.5h22v22h-22z"/>
        <path id="path1083" style="opacity:1;fill:currentColor" class="ColorScheme-Text" d="M224.036 407.505c-.277 0-.5.223-.5.5v.793h-1.5c-.831 0-1.5.669-1.5 1.5v10.707c0 .831.669 1.5 1.5 1.5h7c.83 0 1.5-.669 1.5-1.5v-10.707c0-.831-.67-1.5-1.5-1.5h-1.5v-.793c0-.277-.223-.5-.5-.5zm-2 2.293h7c.294 0 .5.205.5.5v10.707c0 .294-.206.5-.5.5h-7a.478.478 0 0 1-.5-.5v-10.707c0-.295.205-.5.5-.5zm-1.5 4.707.925 7.22 8.326.033.749-7.253z"/>
    </g>
    <g id="22-22-Fill50" transform="translate(-54.54 -426.5)">
        <path id="rect1087" style="opacity:.001" d="M214.54 404.5h22v22h-22z"/>
        <path id="path1089" style="opacity:1;fill:currentColor" class="ColorScheme-Text" d="M224.036 407.505c-.277 0-.5.223-.5.5v.793h-1.5c-.831 0-1.5.669-1.5 1.5v10.707c0 .831.669 1.5 1.5 1.5h7c.83 0 1.5-.669 1.5-1.5v-10.707c0-.831-.67-1.484-1.5-1.5h-1.5v-.793c0-.277-.223-.5-.5-.5zm-2 2.293h7c.294 0 .5.205.5.5v10.707c0 .294-.206.5-.5.5h-7a.478.478 0 0 1-.5-.5v-10.707c0-.295.205-.5.5-.5zm-1.5 5.707.824 6.28 8.306-.033.87-6.247z"/>
    </g>
    <g id="22-22-Fill40" transform="translate(-22.54 -426.5)">
        <path id="rect1093" style="opacity:.001" d="M214.54 404.5h22v22h-22z"/>
        <path id="path1095" style="opacity:1;fill:currentColor" class="ColorScheme-Text" d="M224.036 407.505c-.277 0-.5.223-.5.5v.793h-1.5c-.831 0-1.5.669-1.5 1.5v10.707c0 .831.669 1.5 1.5 1.5h7c.83 0 1.5-.669 1.5-1.5v-10.707c0-.831-.67-1.484-1.5-1.5h-1.5v-.793c0-.277-.223-.5-.5-.5zm-2 2.293h7c.294 0 .5.205.5.5v10.707c0 .294-.206.5-.5.5h-7a.478.478 0 0 1-.5-.5v-10.707c0-.295.205-.5.5-.5zm-1.5 6.707.889 5.255 8.428.008.683-5.263z"/>
    </g>
    <g id="22-22-Fill30" transform="translate(9.46 -426.5)">
        <path id="rect1099" style="opacity:.001" d="M214.54 404.5h22v22h-22z"/>
        <path id="path1101" style="opacity:1;fill:currentColor" class="ColorScheme-Text" d="M224.036 407.505c-.277 0-.5.223-.5.5v.793h-1.5c-.831 0-1.5.669-1.5 1.5v10.707c0 .831.669 1.5 1.5 1.5h7c.83 0 1.5-.669 1.5-1.5v-10.707c0-.831-.67-1.484-1.5-1.5h-1.5v-.793c0-.277-.223-.5-.5-.5zm-2 2.293h7c.294 0 .5.205.5.5v10.707c0 .294-.206.5-.5.5h-7a.478.478 0 0 1-.5-.5v-10.707c0-.295.205-.5.5-.5zm-1.5 7.707 1.008 4.32 8.055-.023.937-4.297z"/>
    </g>
    <g id="22-22-Fill20" transform="translate(41.46 -426.5)">
        <path id="rect1105" style="opacity:.001" d="M214.54 404.5h22v22h-22z"/>
        <path id="path1107" style="opacity:1;fill:currentColor" class="ColorScheme-Text" d="M224.036 407.505c-.277 0-.5.223-.5.5v.793h-1.5c-.831 0-1.5.669-1.5 1.5v10.707c0 .831.669 1.5 1.5 1.5h7c.83 0 1.5-.669 1.5-1.5v-10.707c0-.831-.67-1.5-1.5-1.5h-1.5v-.793c0-.277-.223-.5-.5-.5zm-2 2.293h7c.294 0 .5.205.5.5v10.707c0 .294-.206.5-.5.5h-7a.478.478 0 0 1-.5-.5v-10.707c0-.295.205-.5.5-.5zm-1.5 8.707.874 3.236 8.397.006.729-3.242z"/>
    </g>
    <g id="22-22-Fill10" transform="translate(73.46 -426.5)">
        <path id="rect1111" style="opacity:.001" d="M214.54 404.5h22v22h-22z"/>
        <path id="path1113" style="opacity:1;fill:currentColor" class="ColorScheme-NegativeText" d="M224.036 407.505c-.277 0-.5.223-.5.5v.793h-1.5c-.831 0-1.5.669-1.5 1.5v10.707c0 .831.669 1.5 1.5 1.5h7c.83 0 1.5-.669 1.5-1.5v-10.707c0-.831-.67-1.484-1.5-1.5h-1.5v-.793c0-.277-.223-.5-.5-.5zm-2 2.293h7c.294 0 .5.205.5.5v10.707c0 .294-.206.5-.5.5h-7a.478.478 0 0 1-.5-.5v-10.707c0-.295.205-.5.5-.5zm-1.5 9.707.834 2.253 8.31.018.856-2.27z"/>
    </g>
    <g id="22-22-Fill0" transform="translate(105.46 -426.5)">
        <path id="rect1117" style="opacity:.001" d="M214.54 404.5h22v22h-22z"/>
        <path id="path1119" style="opacity:1;fill:currentColor" class="ColorScheme-NegativeText" d="M224.036 407.505c-.277 0-.5.223-.5.5v.793h-1.5c-.831 0-1.5.669-1.5 1.5v10.707c0 .831.669 1.5 1.5 1.5h7c.83 0 1.5-.669 1.5-1.5v-10.707c0-.831-.67-1.484-1.5-1.5h-1.5v-.793c0-.277-.223-.5-.5-.5zm-2 2.293h7c.294 0 .5.205.5.5v10.707c0 .294-.206.5-.5.5h-7a.478.478 0 0 1-.5-.5v-10.707c0-.295.205-.5.5-.5z"/>
    </g>
    <g id="22-22-battery-ups" transform="translate(-278.54 -426.5)">
        <path id="rect1125" style="opacity:.001" d="M214.54 404.5h22v22h-22z"/>
        <path id="rect1127" style="opacity:1;fill:currentColor" class="ColorScheme-Text" transform="translate(214.536 404.505)" d="M6.5 3C5.669 3 5 3.669 5 4.5v13c0 .831.669 1.5 1.5 1.5h9c.831 0 1.5-.669 1.5-1.5v-13c0-.831-.669-1.5-1.5-1.5Zm0 1h9c.294 0 .5.206.5.5v13c0 .294-.206.5-.5.5h-9a.478.478 0 0 1-.5-.5v-13c0-.294.206-.5.5-.5ZM11 5l-2 5h2v3l2-5h-2ZM7 15v2h1v-2zm2 0v2h1v-2zm2 0v2h1v-2zm3 0a1 1 0 0 0-1 1 1 1 0 0 0 1 1 1 1 0 0 0 1-1 1 1 0 0 0-1-1z"/>
    </g>
    <g id="Fill100">
        <path id="rect864" style="opacity:.001" d="M0 0h32v32H0z"/>
        <path id="path876" style="opacity:1;fill:currentColor" class="ColorScheme-Text" d="M13.8 4a.8.8 0 0 0-.8.8V6h-2.6C9.07 6 8 7.07 8 8.4v17.2c0 1.33 1.07 2.4 2.4 2.4h11.2c1.33 0 2.4-1.07 2.4-2.4V8.4c0-1.33-1.072-2.349-2.4-2.4H19V4.8a.8.8 0 0 0-.8-.8Z"/>
    </g>
    <g id="Fill90" transform="translate(32)">
        <path id="rect900" style="opacity:.001" d="M0 0h32v32H0z"/>
        <path id="path902" style="opacity:1;fill:currentColor" class="ColorScheme-Text" d="M13.8 4a.8.8 0 0 0-.8.8V6h-2.6C9.07 6 8 7.07 8 8.4v17.2c0 1.33 1.07 2.4 2.4 2.4h11.2c1.33 0 2.4-1.07 2.4-2.4V8.4c0-1.33-1.072-2.349-2.4-2.4H19V4.8a.8.8 0 0 0-.8-.8Zm-3.4 3h11.163C22.4 7.032 23 7.608 23 8.4v17.2c0 .793-.607 1.4-1.4 1.4H10.4c-.793 0-1.4-.607-1.4-1.4V8.4c0-.793.607-1.4 1.4-1.4ZM8 10l.984 17.056 13.953.027L24 10Z"/>
    </g>
    <g id="Fill80" transform="translate(64)">
        <path id="rect906" style="opacity:.001" d="M0 0h32v32H0z"/>
        <path id="path908" style="opacity:1;fill:currentColor" class="ColorScheme-Text" d="M13.8 4a.8.8 0 0 0-.8.8V6h-2.6C9.07 6 8 7.07 8 8.4v17.2c0 1.33 1.07 2.4 2.4 2.4h11.2c1.33 0 2.4-1.07 2.4-2.4V8.4c0-1.33-1.072-2.349-2.4-2.4H19V4.8a.8.8 0 0 0-.8-.8Zm-3.4 3h11.163C22.4 7.032 23 7.608 23 8.4v17.2c0 .793-.607 1.4-1.4 1.4H10.4c-.793 0-1.4-.607-1.4-1.4V8.4c0-.793.607-1.4 1.4-1.4ZM8 12l1.044 15.06 13.948.031L24 12Z"/>
    </g>
    <g id="Fill70" transform="translate(96)">
        <path id="rect912" style="opacity:.001" d="M0 0h32v32H0z"/>
        <path id="path914" style="opacity:1;fill:currentColor" class="ColorScheme-Text" d="M13.8 4a.8.8 0 0 0-.8.8V6h-2.6C9.07 6 8 7.07 8 8.4v17.2c0 1.33 1.07 2.4 2.4 2.4h11.2c1.33 0 2.4-1.07 2.4-2.4V8.4c0-1.33-1.072-2.349-2.4-2.4H19V4.8a.8.8 0 0 0-.8-.8Zm-3.4 3h11.163C22.4 7.032 23 7.608 23 8.4v17.2c0 .793-.607 1.4-1.4 1.4H10.4c-.793 0-1.4-.607-1.4-1.4V8.4c0-.793.607-1.4 1.4-1.4ZM8 14l.92 13.096 14.1.117L24 14Z"/>
    </g>
    <g id="Fill60" transform="translate(128)">
        <path id="rect918" style="opacity:.001" d="M0 0h32v32H0z"/>
        <path id="path920" style="opacity:1;fill:currentColor" class="ColorScheme-Text" d="M13.8 4a.8.8 0 0 0-.8.8V6h-2.6C9.07 6 8 7.07 8 8.4v17.2c0 1.33 1.07 2.4 2.4 2.4h11.2c1.33 0 2.4-1.07 2.4-2.4V8.4c0-1.33-1.072-2.349-2.4-2.4H19V4.8a.8.8 0 0 0-.8-.8Zm-3.4 3h11.163C22.4 7.032 23 7.608 23 8.4v17.2c0 .793-.607 1.4-1.4 1.4H10.4c-.793 0-1.4-.607-1.4-1.4V8.4c0-.793.607-1.4 1.4-1.4ZM8 16l.965 11.096 13.994.235L24 16Z"/>
    </g>
    <g id="Fill50" transform="translate(160)">
        <path id="rect924" style="opacity:.001" d="M0 0h32v32H0z"/>
        <path id="path926" style="opacity:1;fill:currentColor" class="ColorScheme-Text" d="M13.8 4a.8.8 0 0 0-.8.8V6h-2.6C9.07 6 8 7.07 8 8.4v17.2c0 1.33 1.07 2.4 2.4 2.4h11.2c1.33 0 2.4-1.07 2.4-2.4V8.4c0-1.33-1.072-2.349-2.4-2.4H19V4.8a.8.8 0 0 0-.8-.8Zm-3.4 3h11.163C22.4 7.032 23 7.608 23 8.4v17.2c0 .793-.607 1.4-1.4 1.4H10.4c-.793 0-1.4-.607-1.4-1.4V8.4c0-.793.607-1.4 1.4-1.4ZM8 18l1.031 9.068 13.934.135L24 18Z"/>
    </g>
    <g id="Fill40" transform="translate(192)">
        <path id="rect932" style="opacity:.001" d="M0 0h32v32H0z"/>
        <path id="path934" style="opacity:1;fill:currentColor" class="ColorScheme-Text" d="M13.8 4a.8.8 0 0 0-.8.8V6h-2.6C9.07 6 8 7.07 8 8.4v17.2c0 1.33 1.07 2.4 2.4 2.4h11.2c1.33 0 2.4-1.07 2.4-2.4V8.4c0-1.33-1.072-2.349-2.4-2.4H19V4.8a.8.8 0 0 0-.8-.8Zm-3.4 3h11.163C22.4 7.032 23 7.608 23 8.4v17.2c0 .793-.607 1.4-1.4 1.4H10.4c-.793 0-1.4-.607-1.4-1.4V8.4c0-.793.607-1.4 1.4-1.4ZM8 20l1.01 7.256 13.984-.054L24 20Z"/>
    </g>
    <g id="Fill30" transform="translate(224)">
        <path id="rect938" style="opacity:.001" d="M0 0h32v32H0z"/>
        <path id="path940" style="opacity:1;fill:currentColor" class="ColorScheme-Text" d="M13.8 4a.8.8 0 0 0-.8.8V6h-2.6C9.07 6 8 7.07 8 8.4v17.2c0 1.33 1.07 2.4 2.4 2.4h11.2c1.33 0 2.4-1.07 2.4-2.4V8.4c0-1.33-1.072-2.349-2.4-2.4H19V4.8a.8.8 0 0 0-.8-.8Zm-3.4 3h11.163C22.4 7.032 23 7.608 23 8.4v17.2c0 .793-.607 1.4-1.4 1.4H10.4c-.793 0-1.4-.607-1.4-1.4V8.4c0-.793.607-1.4 1.4-1.4ZM8 22l1.006 5.206 14.06-.072L24 22Z"/>
    </g>
    <g id="Fill20" transform="translate(256)">
        <path id="rect944" style="opacity:.001" d="M0 0h32v32H0z"/>
        <path id="path946" style="opacity:1;fill:currentColor" class="ColorScheme-Text" d="M13.8 4a.8.8 0 0 0-.8.8V6h-2.6C9.07 6 8 7.07 8 8.4v17.2c0 1.33 1.07 2.4 2.4 2.4h11.2c1.33 0 2.4-1.07 2.4-2.4V8.4c0-1.33-1.072-2.349-2.4-2.4H19V4.8a.8.8 0 0 0-.8-.8Zm-3.4 3h11.163C22.4 7.032 23 7.608 23 8.4v17.2c0 .793-.607 1.4-1.4 1.4H10.4c-.793 0-1.4-.607-1.4-1.4V8.4c0-.793.607-1.4 1.4-1.4ZM8 24l1.157 3.258 13.898.011L24 24Z"/>
    </g>
    <g id="Fill10" transform="translate(288)">
        <path id="rect950" style="opacity:.001" d="M0 0h32v32H0z"/>
        <path id="path952" style="opacity:1;fill:currentColor" class="ColorScheme-NegativeText" d="M13.8 4a.8.8 0 0 0-.8.8V6h-2.6C9.07 6 8 7.07 8 8.4v17.2c0 1.33 1.07 2.4 2.4 2.4h11.2c1.33 0 2.4-1.07 2.4-2.4V8.4c0-1.33-1.072-2.349-2.4-2.4H19V4.8a.8.8 0 0 0-.8-.8Zm-3.4 3h11.163C22.4 7.032 23 7.608 23 8.4v17.2c0 .793-.607 1.4-1.4 1.4H10.4c-.793 0-1.4-.607-1.4-1.4V8.4c0-.793.607-1.4 1.4-1.4ZM8 25l1.344 2.247 13.418-.006L24 25Z"/>
    </g>
    <g id="Fill0" transform="translate(320)">
        <path id="rect956" style="opacity:.001" d="M0 0h32v32H0z"/>
        <path id="path958" style="opacity:1;fill:currentColor" class="ColorScheme-NegativeText" d="M13.8 4a.8.8 0 0 0-.8.8V6h-2.6C9.07 6 8 7.07 8 8.4v17.2c0 1.33 1.07 2.4 2.4 2.4h11.2c1.33 0 2.4-1.07 2.4-2.4V8.4c0-1.33-1.072-2.349-2.4-2.4H19V4.8a.8.8 0 0 0-.8-.8Zm-3.4 3h11.163C22.4 7.032 23 7.608 23 8.4v17.2c0 .793-.607 1.4-1.4 1.4H10.4c-.793 0-1.4-.607-1.4-1.4V8.4c0-.793.607-1.4 1.4-1.4Z"/>
    </g>
    <g id="Battery" transform="translate(-32)">
        <path id="rect962" style="opacity:.001" d="M0 0h32v32H0z"/>
        <path id="path964" style="opacity:1;fill:currentColor" class="ColorScheme-Text" d="M13.8 4a.8.8 0 0 0-.8.8V6h-2.6C9.07 6 8 7.07 8 8.4v17.2c0 1.33 1.07 2.4 2.4 2.4h11.2c1.33 0 2.4-1.07 2.4-2.4V8.4c0-1.33-1.072-2.349-2.4-2.4H19V4.8a.8.8 0 0 0-.8-.8Zm-3.4 3h11.163C22.4 7.032 23 7.608 23 8.4v17.2c0 .793-.607 1.4-1.4 1.4H10.4c-.793 0-1.4-.607-1.4-1.4V8.4c0-.793.607-1.4 1.4-1.4Z"/>
    </g>
    <g id="battery-ups" transform="translate(-64)">
        <path id="rect969" style="opacity:.001" d="M0 0h32v32H0z"/>
        <path id="path989" style="opacity:1;fill:currentColor" class="ColorScheme-Text" d="M9.25 4A2.245 2.245 0 0 0 7 6.25v19.5A2.245 2.245 0 0 0 9.25 28h13.5A2.245 2.245 0 0 0 25 25.75V6.25A2.245 2.245 0 0 0 22.75 4Zm0 1h13.5c.71 0 1.25.54 1.25 1.25v19.5c0 .71-.54 1.25-1.25 1.25H9.25C8.54 27 8 26.46 8 25.75V6.25C8 5.54 8.54 5 9.25 5ZM16 7l-3 7h3v5l3-7h-3zm-6 15v3h1v-3zm3 0v3h1v-3zm3 0v3h1v-3zm4.5 0a1.5 1.5 0 0 0-1.5 1.5 1.5 1.5 0 0 0 1.5 1.5 1.5 1.5 0 0 0 1.5-1.5 1.5 1.5 0 0 0-1.5-1.5Z"/>
    </g>
    <g id="Unavailable" transform="translate(-96)">
        <path id="rect1001" style="opacity:.001" d="M0 0h32v32H0z"/>
        <g id="g1028" transform="translate(10 10)">
            <rect id="rect1003" style="opacity:1;fill:currentColor" class="ColorScheme-NegativeText" width="12" height="12" x="10" y="10" ry="1.2"/>
            <path id="path1017" style="opacity:1;fill:#fff" d="m12.354 11.646-.708.708L15.293 16l-3.647 3.646.708.708L16 16.707l3.646 3.647.708-.708L16.707 16l3.647-3.646-.708-.708L16 15.293Z"/>
        </g>
    </g>
    <g id="AcAdapter" transform="translate(-128)">
        <path id="rect1042" style="opacity:.001" d="M0 0h32v32H0z"/>
        <path id="path1068" style="opacity:1;fill:#2abb9b" d="m16 11-3 7h3v5l3-7h-3z"/>
    </g>
    <g id="22-22-AcAdapter" transform="translate(-133 -27)">
        <path id="rect1084" style="opacity:.001" d="M5 5h22v22H5z"/>
        <path id="path1102" style="opacity:1;fill:#2abb9b" d="m16 12-2 5h2v3l2-5h-2z"/>
    </g>
</svg>
