<svg xmlns="http://www.w3.org/2000/svg" id="svg7" width="32" height="32" version="1.1">
    <defs id="rounded">
        <style type="text/css" id="current-color-scheme">
            .ColorScheme-Text{color:#eff0f1}
        </style>
    </defs>
    <g id="22-22-choqok_offline" transform="translate(32 10)">
        <path id="rect1054" style="opacity:.001" d="M0 0h22v22H0z"/>
        <path id="path861" style="opacity:.5;fill:currentColor" class="ColorScheme-Text" d="M16.684 2.998s-.288.634 0 1c-1.098-1-2.075-.5-2.075-.5s.246.656.61 1c-.585-.287-1.219 0-1.219 0s.33.5.61.5H3.888A.882.882 0 0 0 3 5.873v10.302c0 .482.398.823.889.823h8.449l2.256 1.838c.588.413 1.406-.001 1.406-.713v-1.125h2.111c.491 0 .889-.34.889-.824V4.944l-.006-.012c-.069-1.447-2.31-1.934-2.31-1.934Zm-11.752 3h9.601c-.474.726-.693 1.431-.396 2.336.536 1.633 2.315 1.903 3.863 1.479v6.185h-2a1 1 0 0 0-1 1v.88l-2.031-1.655a1 1 0 0 0-.631-.225H4v-4.107c.233.064.474.107.727.107 1.589 0 3.273-.743 3.273-2.4 0-1.58-1.53-3.4-3.05-3.568-.005-.012-.013-.02-.018-.032zm11.068 1a1 1 0 1 1 0 2 1 1 0 0 1 0-2zm-10 1a1 1 0 1 1 0 2 1 1 0 0 1 0-2zM13.51 11a6.733 6.733 0 0 0-1.951.266c-1.549.346-2.765 1.414-3.522 2.596a2.002 2.002 0 0 1-.037.082h.002c1.058 1.1 2.972 2.083 4.463 2.049 2.768-.342 3.372-2.176 3.506-4.186 0 0-.8-.771-2.461-.807zm.49 2.998v1h-3c.331-1.03 3-1 3-1z"/>
    </g>
    <g id="choqok_offline">
        <path id="rect817" style="opacity:.001" d="M0 0h32v32H0z"/>
        <path id="path837" style="opacity:.5;fill:currentColor" class="ColorScheme-Text" d="M24.525 4s-.43.951 0 1.5c-1.646-1.5-3.11-.75-3.11-.75s.367.984.913 1.5c-.877-.431-1.828 0-1.828 0s.496.75.914.75H5.334C4.598 7 4 7.588 4 8.313V23.762c0 .724.598 1.236 1.334 1.236h12.674l2.883 2.756c.882.618 2.109-.002 2.109-1.068v-1.688h3.668c.736 0 1.332-.512 1.332-1.236V6.918l-.01-.018C27.887 4.73 24.525 4 24.525 4zM5.014 8H20.8c-.711 1.088-1.042 2.146-.596 3.504C22 15 24.678 14.357 27 13.72v10.283h-4c-.828 0-1 .166-1 .994V27l-3.047-2.564c-.267-.218-.6-.432-.945-.432H5v-7.067c.35.097 1.211.16 1.59.16 2.384 0 5.41-.714 5.41-3.199 0-2.231-2.537-4.784-4.68-5.283-.132-.03-2.174-.6-2.306-.615zM23.5 10a1.5 1.5 0 1 1 0 3 1.5 1.5 0 0 1 0-3zm-15 1a1.5 1.5 0 1 1 0 3 1.5 1.5 0 0 1 0-3zm11.264 5.002c-.83-.017-1.806.087-2.926.398-2.323.52-4.149 2.122-5.283 3.895a3.39 3.39 0 0 1-.055.123h.002c1.587 1.652 4.36 3.632 6.596 3.58 4.152-.513 5.157-3.768 5.357-6.785 0 0-1.2-1.158-3.69-1.211h-.001zM20 20v1.998h-4C16.497 20.454 20 20 20 20z"/>
    </g>
</svg>
