<svg id="svg2" width="32" height="32" version="1.1" xmlns="http://www.w3.org/2000/svg">
    <defs id="rounded">
        <style type="text/css" id="current-color-scheme">
            .ColorScheme-Text{color:#eff0f1}.ColorScheme-NegativeText{color:#da4453}.ColorScheme-Highlight{color:#3daee9}.ColorScheme-Background{color:#31363b}.ColorScheme-ButtonBackground{color:#444c53}
        </style>
    </defs>
    <g id="22-22-configure" transform="translate(0 -22)">
        <path id="rect856" style="opacity:.001" d="M0 0h22v22H0z"/>
        <g id="g67739">
            <path id="rect64392-0" style="fill:#eff0f1;fill-opacity:1;stroke:none;stroke-width:2.05155;stroke-linejoin:round;stroke-miterlimit:4;stroke-dasharray:none;stroke-opacity:1" d="M15.5 12c1.939 0 3.5 1.561 3.5 3.5S17.439 19 15.5 19h-9A3.492 3.492 0 0 1 3 15.5C3 13.561 4.561 12 6.5 12zm-9 1A2.5 2.5 0 0 0 4 15.5 2.5 2.5 0 0 0 6.5 18 2.5 2.5 0 0 0 9 15.5 2.5 2.5 0 0 0 6.5 13z"/>
            <path id="rect64392" style="fill:#eff0f1;fill-opacity:1;stroke:none;stroke-width:2.05155;stroke-linejoin:round;stroke-miterlimit:4;stroke-dasharray:none;stroke-opacity:1" d="M6.5 3A3.492 3.492 0 0 0 3 6.5C3 8.439 4.561 10 6.5 10h9c1.939 0 3.5-1.561 3.5-3.5S17.439 3 15.5 3Zm9 1A2.5 2.5 0 0 1 18 6.5 2.5 2.5 0 0 1 15.5 9 2.5 2.5 0 0 1 13 6.5 2.5 2.5 0 0 1 15.5 4Z"/>
        </g>
    </g>
    <g id="16-16-configure" transform="translate(-3 -41)">
        <path id="rect817" style="opacity:.001" d="M3 3h16v16H3z"/>
        <g id="g67739-5" transform="matrix(.75 0 0 .75 2.75 2.75)">
            <path id="rect64392-0-3" style="fill:#eff0f1;fill-opacity:1;stroke:none;stroke-width:2.05155;stroke-linejoin:round;stroke-miterlimit:4;stroke-dasharray:none;stroke-opacity:1" d="M15.5 12c1.939 0 3.5 1.561 3.5 3.5S17.439 19 15.5 19h-9A3.492 3.492 0 0 1 3 15.5C3 13.561 4.561 12 6.5 12zm-9 1A2.5 2.5 0 0 0 4 15.5 2.5 2.5 0 0 0 6.5 18 2.5 2.5 0 0 0 9 15.5 2.5 2.5 0 0 0 6.5 13z"/>
            <path id="rect64392-5" style="fill:#eff0f1;fill-opacity:1;stroke:none;stroke-width:2.05155;stroke-linejoin:round;stroke-miterlimit:4;stroke-dasharray:none;stroke-opacity:1" d="M6.5 3A3.492 3.492 0 0 0 3 6.5C3 8.439 4.561 10 6.5 10h9c1.939 0 3.5-1.561 3.5-3.5S17.439 3 15.5 3Zm9 1A2.5 2.5 0 0 1 18 6.5 2.5 2.5 0 0 1 15.5 9 2.5 2.5 0 0 1 13 6.5 2.5 2.5 0 0 1 15.5 4Z"/>
        </g>
    </g>
    <g id="configure">
        <path id="rect820" style="opacity:.001" d="M0 0h32v32H0z"/>
        <g id="g67739-3" transform="matrix(1.5 0 0 1.5 -.5 -.5)">
            <path id="rect64392-0-6" style="fill:#eff0f1;fill-opacity:1;stroke:none;stroke-width:2.05155;stroke-linejoin:round;stroke-miterlimit:4;stroke-dasharray:none;stroke-opacity:1" d="M15.5 12c1.939 0 3.5 1.561 3.5 3.5S17.439 19 15.5 19h-9A3.492 3.492 0 0 1 3 15.5C3 13.561 4.561 12 6.5 12zm-9 1A2.5 2.5 0 0 0 4 15.5 2.5 2.5 0 0 0 6.5 18 2.5 2.5 0 0 0 9 15.5 2.5 2.5 0 0 0 6.5 13z"/>
            <path id="rect64392-7" style="fill:#eff0f1;fill-opacity:1;stroke:none;stroke-width:2.05155;stroke-linejoin:round;stroke-miterlimit:4;stroke-dasharray:none;stroke-opacity:1" d="M6.5 3A3.492 3.492 0 0 0 3 6.5C3 8.439 4.561 10 6.5 10h9c1.939 0 3.5-1.561 3.5-3.5S17.439 3 15.5 3Zm9 1A2.5 2.5 0 0 1 18 6.5 2.5 2.5 0 0 1 15.5 9 2.5 2.5 0 0 1 13 6.5 2.5 2.5 0 0 1 15.5 4Z"/>
        </g>
    </g>
</svg>
