<svg xmlns="http://www.w3.org/2000/svg" id="svg24" width="32" height="32" version="1.1">
    <defs id="rounded">
        <style type="text/css" id="current-color-scheme">
            .ColorScheme-Text{color:#eff0f1}
        </style>
    </defs>
    <g id="22-22-face-laughing" transform="translate(32 10)">
        <path id="rect2" style="opacity:.001" d="M0 0h22v22H0z"/>
        <path id="path823" style="opacity:1;fill:currentColor" class="ColorScheme-Text" d="M11 3a8 8 0 1 0 0 16 8 8 0 0 0 0-16zm0 1a7 7 0 1 1 0 14 7 7 0 0 1 0-14ZM8 7c-.554 0-1 .446-1 1s.446 1 1 1 1-.446 1-1-.446-1-1-1zm6 0c-.554 0-1 .446-1 1s.446 1 1 1 1-.446 1-1-.446-1-1-1zm-6.844 6C7.6 14.727 9.131 16 11 16c1.869 0 3.4-1.273 3.844-3z"/>
    </g>
    <g id="face-laughing">
        <path id="rect817" style="opacity:.001" d="M0 0h32v32H0z"/>
        <path id="path833" style="opacity:1;fill:currentColor" class="ColorScheme-Text" d="M16 4C9.373 4 4 9.373 4 16s5.373 12 12 12 12-5.373 12-12S22.627 4 16 4zm0 1c6.075 0 11 4.925 11 11s-4.925 11-11 11S5 22.075 5 16 9.925 5 16 5zm-4.5 5c-.831 0-1.5.669-1.5 1.5s.669 1.5 1.5 1.5 1.5-.669 1.5-1.5-.669-1.5-1.5-1.5zm9 0c-.831 0-1.5.669-1.5 1.5s.669 1.5 1.5 1.5 1.5-.669 1.5-1.5-.669-1.5-1.5-1.5zM9.594 18c.739 2.878 3.291 5 6.406 5 3.115 0 5.667-2.122 6.406-5H9.594z"/>
    </g>
</svg>
