<svg xmlns="http://www.w3.org/2000/svg" id="svg3869" width="32" height="32" version="1.1">
    <defs id="rounded">
        <style type="text/css" id="current-color-scheme">
            .ColorScheme-Text{color:#eff0f1}
        </style>
    </defs>
    <g id="22-22-go-home" transform="translate(0 -22)">
        <path id="rect907" style="opacity:.001" d="M0 0h22v22H0z"/>
        <path id="rect848" style="opacity:1;fill:currentColor" class="ColorScheme-Text" d="M10.975 3a.5.5 0 0 0-.317.135L5.016 8.4H5v.016l-1.842 1.719c-.487.455.197 1.186.684.73L5 9.783c0 2.49-.003 4.628.002 7.32.024 1.1 1.078 2.002 2.164 1.897 2.646-.002 5.292.004 7.938-.002 1.098-.024 2.001-1.078 1.896-2.164v-7.05l1.158 1.081c.487.456 1.17-.274.684-.73L17 8.416V8.4h-.016L16 7.482V4h-2v1.615l-2.658-2.48A.5.5 0 0 0 10.975 3ZM11 4.184l5 4.666c-.002 2.953.005 5.22-.006 8.255-.03.597-.635.975-1.193.895L13 17.998V14c0-.554-.446-1-1-1h-2c-.554 0-1 .446-1 1v3.996c-.701 0-1.402.001-2.104-.002-.657-.069-.96-.802-.896-1.392v-7.75Z"/>
    </g>
    <g id="22-22-go-previous" transform="matrix(-1 0 0 1 54 -22)">
        <path id="rect845" style="opacity:.001" transform="scale(-1 1)" d="M-22 0H0v22h-22z"/>
        <path style="fill:#eff0f1;fill-opacity:1;stroke-width:.021" d="M15.802 11a1.417 1.417 0 0 0-.233-.75c-.036-.055-1.53-1.557-3.32-3.337-3.45-3.428-3.376-3.359-3.717-3.5-.356-.149-.804-.171-1.139-.058-.494.167-.792.413-1.01.834-.142.276-.183.453-.185.794 0 .232.008.314.046.448.057.202.138.364.266.534.054.072.903.927 1.887 1.9l2.492 2.468.671.667-.671.667-2.492 2.468c-.984.973-1.833 1.828-1.887 1.9-.128.17-.209.332-.266.534-.038.134-.047.216-.046.447.002.342.043.519.186.795.217.421.515.667 1.01.834.334.113.782.09 1.138-.057.341-.142.268-.073 3.716-3.501 1.791-1.78 3.285-3.282 3.32-3.337.151-.234.228-.482.234-.75z" id="path821-7-5"/>
    </g>
    <g id="22-22-go-next" transform="translate(64 -22)">
        <path id="rect871" style="opacity:.001" transform="scale(-1 1)" d="M-22 0H0v22h-22z"/>
        <path style="fill:#eff0f1;fill-opacity:1;stroke-width:.021" d="M15.802 11a1.417 1.417 0 0 1-.233.75c-.036.055-1.53 1.557-3.32 3.337-3.45 3.428-3.376 3.359-3.717 3.5-.356.149-.804.171-1.139.058-.494-.167-.792-.413-1.01-.834-.142-.276-.183-.453-.185-.794 0-.232.008-.314.046-.448.057-.202.138-.364.266-.534.054-.072.903-.927 1.887-1.9l2.492-2.468.671-.667-.671-.667-2.492-2.468c-.984-.973-1.833-1.828-1.887-1.9a1.547 1.547 0 0 1-.266-.534c-.038-.134-.047-.216-.046-.447.002-.342.043-.519.186-.795.217-.421.515-.667 1.01-.834.334-.113.782-.09 1.138.057.341.142.268.073 3.716 3.501 1.791 1.78 3.285 3.282 3.32 3.337.151.234.228.482.234.75z" id="path821-7-5-3"/>
    </g>
    <g id="22-22-go-up" transform="rotate(-90 48 -48)">
        <path id="rect877" style="opacity:.001" transform="scale(-1 1)" d="M-22 0H0v22h-22z"/>
        <path style="fill:#eff0f1;fill-opacity:1;stroke-width:.021" d="M15.802 11a1.417 1.417 0 0 1-.233.75c-.036.055-1.53 1.557-3.32 3.337-3.45 3.428-3.376 3.359-3.717 3.5-.356.149-.804.171-1.139.058-.494-.167-.792-.413-1.01-.834-.142-.276-.183-.453-.185-.794 0-.232.008-.314.046-.448.057-.202.138-.364.266-.534.054-.072.903-.927 1.887-1.9l2.492-2.468.671-.667-.671-.667-2.492-2.468c-.984-.973-1.833-1.828-1.887-1.9a1.547 1.547 0 0 1-.266-.534c-.038-.134-.047-.216-.046-.447.002-.342.043-.519.186-.795.217-.421.515-.667 1.01-.834.334-.113.782-.09 1.138.057.341.142.268.073 3.716 3.501 1.791 1.78 3.285 3.282 3.32 3.337.151.234.228.482.234.75z" id="path821-7-5-5"/>
    </g>
    <g id="22-22-go-down" transform="rotate(90 86 64)">
        <path id="rect883" style="opacity:.001" transform="scale(-1 1)" d="M-22 0H0v22h-22z"/>
        <path style="fill:#eff0f1;fill-opacity:1;stroke-width:.021" d="M15.802 11a1.42 1.42 0 0 1-.233.75c-.036.055-1.53 1.557-3.32 3.337-3.45 3.428-3.376 3.359-3.717 3.5-.356.149-.804.171-1.139.058-.494-.167-.792-.413-1.01-.834-.142-.276-.183-.453-.185-.794 0-.232.007-.314.046-.448.057-.202.138-.364.266-.534.054-.072.903-.927 1.887-1.9l2.492-2.468.671-.667-.671-.667-2.492-2.468c-.984-.973-1.833-1.828-1.887-1.9a1.547 1.547 0 0 1-.266-.534c-.038-.134-.047-.216-.046-.447.001-.342.043-.519.186-.795.217-.421.515-.667 1.01-.834.334-.113.782-.09 1.138.057.341.142.268.073 3.716 3.501 1.791 1.78 3.285 3.282 3.32 3.336.151.235.228.483.234.751z" id="path821-7-5-6"/>
    </g>
    <g id="go-home">
        <path id="rect829" style="opacity:.001" d="M0 0h32v32H0z"/>
        <path id="rect839" style="opacity:1;fill:currentColor" class="ColorScheme-Text" d="M15.982 4a.5.5 0 0 0-.328.139l-11.5 11a.5.5 0 1 0 .692.722L7 13.801V25c0 1.662 1.338 3 3 3h12c1.662 0 3-1.338 3-3V13.8l2.154 2.061a.5.5 0 1 0 .692-.722L24 11.46V5h-3v3.59l-4.654-4.451A.5.5 0 0 0 15.982 4ZM16 5.191l8 7.653V25c0 1.125-.875 2-2 2h-3v-6.5c0-.831-.669-1.5-1.5-1.5h-3c-.831 0-1.5.669-1.5 1.5V27h-3c-1.125 0-2-.875-2-2V12.844Z"/>
    </g>
    <g id="go-previous" transform="translate(32)">
        <path id="rect874" style="opacity:.001" d="M0 0h32v32H0z"/>
        <path style="fill:#eff0f1;fill-opacity:1;stroke-width:.03" d="M8.64 16c.008-.382.119-.737.334-1.072.05-.078 2.184-2.223 4.742-4.766 4.927-4.898 4.822-4.799 5.31-5.001.508-.212 1.148-.245 1.627-.083.706.239 1.131.59 1.442 1.192.204.395.263.648.265 1.135 0 .331-.011.448-.065.639a2.21 2.21 0 0 1-.38.763c-.077.103-1.29 1.325-2.696 2.715-1.405 1.39-3.007 2.976-3.56 3.525l-.96.953.96.953c.553.549 2.155 2.135 3.56 3.525 1.406 1.39 2.619 2.612 2.696 2.715.183.243.298.474.38.763.054.191.066.308.065.639-.002.488-.061.74-.265 1.135-.311.602-.736.953-1.443 1.192-.478.162-1.118.13-1.627-.083-.487-.202-.382-.103-5.309-5-2.558-2.544-4.692-4.689-4.742-4.767A2.024 2.024 0 0 1 8.64 16z" id="path821-7-3"/>
    </g>
    <g id="go-next" transform="matrix(-1 0 0 1 96 0)">
        <path id="rect896" style="opacity:.00100002" d="M0 0h32v32H0z"/>
        <path style="fill:#eff0f1;fill-opacity:1;stroke-width:.03" d="M9.132 15.81c.008.382.118.737.333 1.072.05.078 2.185 2.223 4.743 4.766 4.927 4.897 4.822 4.798 5.309 5 .509.213 1.149.245 1.627.084.706-.24 1.131-.59 1.442-1.192.204-.395.263-.648.265-1.135.001-.331-.01-.448-.065-.64a2.21 2.21 0 0 0-.38-.763c-.077-.103-1.29-1.324-2.695-2.714-1.406-1.39-3.008-2.977-3.56-3.526l-.96-.952.96-.953c.552-.55 2.154-2.136 3.56-3.526 1.405-1.39 2.618-2.611 2.695-2.714a2.21 2.21 0 0 0 .38-.763c.054-.192.066-.308.065-.64-.002-.487-.06-.74-.265-1.134-.31-.602-.736-.954-1.442-1.192-.478-.162-1.118-.13-1.627.082-.487.203-.382.104-5.31 5.001-2.557 2.543-4.692 4.688-4.742 4.766-.215.335-.325.69-.333 1.073z" id="path821-7"/>
    </g>
    <g id="go-up" transform="matrix(0 1 1 0 96 0)">
        <path id="rect902" style="opacity:.001" d="M0 0h32v32H0z"/>
        <path style="fill:#eff0f1;fill-opacity:1;stroke-width:.03" d="M8.64 16c.008.383.119.737.334 1.072.05.078 2.184 2.223 4.742 4.766 4.927 4.898 4.822 4.799 5.31 5.001.508.212 1.148.245 1.627.083.706-.239 1.131-.59 1.442-1.192.204-.395.263-.647.265-1.135 0-.33-.011-.448-.065-.639a2.21 2.21 0 0 0-.38-.763c-.077-.103-1.29-1.325-2.696-2.715a3756.02 3756.02 0 0 1-3.56-3.525l-.96-.953.96-.953c.553-.549 2.155-2.135 3.56-3.525 1.406-1.39 2.619-2.612 2.696-2.715a2.21 2.21 0 0 0 .38-.763c.054-.191.066-.308.065-.639-.002-.487-.061-.74-.265-1.135-.311-.602-.736-.953-1.443-1.192-.478-.162-1.118-.129-1.627.083-.487.202-.382.103-5.309 5-2.558 2.544-4.692 4.689-4.742 4.767-.215.335-.326.69-.334 1.072z" id="path821-7-3-6"/>
    </g>
    <g id="go-down" transform="rotate(-90 80 -48)">
        <path id="rect908" style="opacity:.001" d="M0 0h32v32H0z"/>
        <path style="fill:#eff0f1;fill-opacity:1;stroke-width:.03" d="M8.64 16c.008-.382.119-.737.334-1.072.05-.078 2.184-2.223 4.742-4.766 4.927-4.898 4.822-4.799 5.31-5.001.508-.212 1.148-.245 1.627-.083.706.239 1.131.59 1.442 1.192.204.395.263.648.265 1.135 0 .331-.011.448-.065.639a2.21 2.21 0 0 1-.38.763c-.077.103-1.29 1.325-2.696 2.715-1.405 1.39-3.007 2.976-3.56 3.525l-.96.953.96.953c.553.549 2.155 2.135 3.56 3.525 1.406 1.39 2.619 2.612 2.696 2.715.183.243.298.474.38.763.054.191.066.308.065.64-.002.487-.061.74-.265 1.134-.311.602-.736.953-1.443 1.192-.478.162-1.118.13-1.627-.083-.487-.202-.382-.103-5.309-5-2.558-2.544-4.692-4.688-4.742-4.767A2.024 2.024 0 0 1 8.64 16z" id="path821-7-3-6-7"/>
    </g>
</svg>
