<?xml version="1.0" encoding="UTF-8" standalone="no"?>
<svg
   id="svg18"
   width="32"
   height="32"
   version="1.1"
   xmlns="http://www.w3.org/2000/svg"
   xmlns:svg="http://www.w3.org/2000/svg">
  <defs
     id="rounded">
    <style
       type="text/css"
       id="current-color-scheme">
            .ColorScheme-Text{color:#eff0f1}
        </style>
  </defs>
  <g
     id="22-22-kdf"
     transform="translate(32 10)">
    <path
       id="rect835"
       style="opacity:.001"
       d="M0 0h22v22H0z" />
    <path
       id="path966"
       style="opacity:1;fill:currentColor"
       class="ColorScheme-Text"
       d="m 43.482422,13 c -0.07133,0.0028 -0.141312,0.02064 -0.205078,0.05273 l -3.927735,1.962891 c -0.0013,6.61e-4 -0.0026,0.0013 -0.0039,0.002 -0.172435,0.05606 -0.300943,0.200995 -0.335937,0.378906 -0.0034,0.0152 -0.0059,0.03143 -0.0078,0.04687 -1.2e-5,0.002 -1.2e-5,0.0039 0,0.0059 -0.0014,0.01563 -0.002,0.03119 -0.002,0.04687 -5e-6,0.0013 -5e-6,0.0026 0,0.0039 v 2.691406 l -3.650391,1.824219 c -0.0013,6.61e-4 -0.0026,0.0013 -0.0039,0.002 -0.172435,0.05606 -0.300943,0.200994 -0.335937,0.378906 -0.0034,0.01553 -0.0059,0.03108 -0.0078,0.04687 -8e-6,0.0017 -8e-6,0.0042 0,0.0059 -0.0014,0.01563 -0.002,0.03119 -0.002,0.04687 -5e-6,0.0013 -5e-6,0.0026 0,0.0039 v 4.160156 c 1e-4,0.161635 0.07927,0.312502 0.210938,0.40625 l 3.978515,2.826172 0.02148,0.01563 c 0.0066,0.0042 0.01277,0.0079 0.01953,0.01172 0.01168,0.0078 0.02285,0.01466 0.03516,0.02148 0.0066,0.0035 0.01279,0.0066 0.01953,0.0098 0.0056,0.0024 0.01187,0.0056 0.01758,0.0078 0.0131,0.0059 0.02746,0.01086 0.04102,0.01563 0.01316,0.0046 0.02557,0.0083 0.03906,0.01172 0.02829,0.0062 0.05701,0.01052 0.08594,0.01172 0.01563,0.0014 0.03119,0.0021 0.04687,0.002 0.0077,-4.9e-4 0.01579,-0.0012 0.02344,-0.002 h 0.002 c 0.01104,-9.67e-4 0.02225,-0.0022 0.0332,-0.0039 0.02193,-0.0029 0.0431,-0.0079 0.06445,-0.01367 0.0077,-0.0025 0.01584,-0.0049 0.02344,-0.0078 0.0088,-0.0031 0.01682,-0.0062 0.02539,-0.0098 0.01187,-0.0049 0.0237,-0.0098 0.03516,-0.01563 0.0033,-9.65e-4 0.0064,-0.0029 0.0098,-0.0039 0.0064,-0.0039 0.01329,-0.0076 0.01953,-0.01172 0.0054,-0.0032 0.01035,-0.0064 0.01563,-0.0098 l 0.0078,-0.0039 c 0.0047,-0.0033 0.0091,-0.0064 0.01367,-0.0098 l 2.119141,-1.345703 3.28125,2.330078 0.02148,0.01563 c 0.0066,0.0042 0.01277,0.0079 0.01953,0.01172 0.01136,0.0078 0.0232,0.01463 0.03516,0.02148 0.0066,0.0035 0.01279,0.0066 0.01953,0.0098 0.0056,0.0024 0.01187,0.0056 0.01758,0.0078 0.0131,0.0059 0.02746,0.01086 0.04102,0.01563 0.01318,0.0042 0.02558,0.0086 0.03906,0.01172 0.02826,0.0065 0.05698,0.01022 0.08594,0.01172 0.01563,0.0014 0.03119,0.0021 0.04687,0.002 0.0077,-4.9e-4 0.01579,-0.0012 0.02344,-0.002 h 0.002 c 0.01104,-9.67e-4 0.02225,-0.0022 0.0332,-0.0039 0.02193,-0.0029 0.04309,-0.0079 0.06445,-0.01367 0.0077,-0.0025 0.01584,-0.0049 0.02344,-0.0078 0.0088,-0.0031 0.01682,-0.0062 0.02539,-0.0098 0.01187,-0.0049 0.0237,-0.0098 0.03516,-0.01563 0.0033,-0.0013 0.0065,-0.0025 0.0098,-0.0039 0.0064,-0.0035 0.01328,-0.0079 0.01953,-0.01172 0.0054,-0.0032 0.01035,-0.0064 0.01563,-0.0098 l 0.0078,-0.0039 c 0.0047,-0.0033 0.0091,-0.0064 0.01367,-0.0098 l 3.978516,-2.527344 C 49.91202,26.289149 49.999963,26.13008 50,25.958984 v -4.453125 c 1.2e-5,-0.002 1.2e-5,-0.0039 0,-0.0059 1e-5,-0.01502 -6.11e-4,-0.02996 -0.002,-0.04492 1.2e-5,-0.002 1.2e-5,-0.0039 0,-0.0059 -0.01823,-0.200148 -0.15423,-0.370569 -0.345703,-0.431641 l -1.699219,-0.849609 c 0.03044,-0.06515 0.04635,-0.135126 0.04687,-0.207031 v -4.455079 c 1.2e-5,-0.002 1.2e-5,-0.0039 0,-0.0059 10e-6,-0.01502 -6.11e-4,-0.02996 -0.002,-0.04492 1.2e-5,-0.002 1.2e-5,-0.0039 0,-0.0059 -0.01823,-0.200148 -0.15423,-0.370569 -0.345703,-0.431641 L 43.722656,13.052734 C 43.648312,13.015374 43.565586,12.997423 43.482422,13 Z M 40.521484,15.550781 43.5,17.410156 47,15.550781 v 0.851563 l -3,1.875 v 3.3125 l 3,-1.90625 v 1.154297 l -2.761719,1.785156 1.261719,0.787109 2.978516,-1.859375 0.519531,0.270219 0.002,0.581344 -3,1.875 V 27.53125 H 45 V 24.5 c -4.08e-4,-0.01166 -4.08e-4,-0.0235 0,-0.03516 v -0.1875 l -3,-1.875 v 3 l -1,0.257812 V 22.65234 l -1,0.625 v 3.25391 H 39 V 23.5 c -4.08e-4,-0.01166 -4.08e-4,-0.0235 0,-0.03516 v -0.1875 l -3,-1.875 V 20.5625 c -5e-6,-0.0012 -5e-6,-0.0028 0,-0.0039 -1e-4,-0.01373 7.53e-4,-0.02734 0.002,-0.04102 -6e-6,-0.0015 -6e-6,-0.0024 0,-0.0039 0.0016,-0.01381 0.0049,-0.02743 0.0078,-0.04102 -0.0078,0.04102 0.511718,0.07813 0.511718,0.07813 L 39.5,22.410156 41,21.474609 c 5e-4,-0.008 0.0011,-0.01739 0.002,-0.02539 -1.2e-5,-0.002 -1.2e-5,-0.0039 0,-0.0059 0.0019,-0.01545 0.0044,-0.02972 0.0078,-0.04492 0.003,-0.01449 0.0074,-0.02881 0.01172,-0.04297 L 39.210938,20.066406 C 39.079549,19.972863 39.000422,19.821438 39,19.660156 v -0.349609 0.02731 l 1,-0.537703 v 0.602195 l 3,2.128906 V 18.5 c -4.08e-4,-0.01167 -4.08e-4,-0.0235 0,-0.03516 v -0.1875 l -3,-1.875 v -0.75586 z"
       transform="translate(-32,-10)" />
  </g>
  <g
     id="kdf">
    <path
       id="path6432"
       style="opacity:1;fill:currentColor"
       class="ColorScheme-Text"
       d="M 17.519531 4 A 0.912 0.912 0 0 0 17.269531 4.0292969 C 17.268939 4.0294515 17.26817 4.029141 17.267578 4.0292969 A 0.912 0.912 0 0 0 17.259766 4.0332031 A 0.912 0.912 0 0 0 17.035156 4.1269531 L 11.462891 7.40625 A 0.946 0.946 0 0 0 11.123047 7.7519531 A 0.946 0.946 0 0 0 11 8.2207031 L 11 12.146484 L 5.4628906 15.404297 A 0.946 0.946 0 0 0 5.1230469 15.751953 A 0.946 0.946 0 0 0 5 16.220703 L 5 22.777344 C 5 23.029344 5.0990937 23.267312 5.2695312 23.441406 C 5.2982512 23.470906 5.3286981 23.497837 5.3613281 23.523438 C 5.3935391 23.548676 5.4271406 23.57275 5.4628906 23.59375 L 11.035156 26.871094 C 11.323156 27.041094 11.676844 27.041094 11.964844 26.871094 L 15.150391 24.996094 L 20.035156 27.871094 C 20.323156 28.041094 20.676844 28.041094 20.964844 27.871094 L 26.537109 24.591797 A 0.946 0.946 0 0 0 26.869141 24.253906 C 26.871558 24.249752 26.8746 24.246378 26.876953 24.242188 A 0.946 0.946 0 0 0 27 23.779297 L 27 17.222656 C 27.000482 16.937101 26.870824 16.66865 26.654297 16.490234 C 26.648958 16.48589 26.64413 16.480814 26.638672 16.476562 C 26.606342 16.451097 26.573051 16.427592 26.537109 16.40625 L 23.990234 14.908203 C 23.996434 14.865473 23.9995 14.822467 24 14.779297 L 24 8.2207031 C 24.000436 7.9619134 23.893808 7.7192546 23.712891 7.5429688 C 23.70862 7.538808 23.703581 7.535359 23.699219 7.53125 C 23.677773 7.5111321 23.656234 7.4908241 23.632812 7.4726562 C 23.602153 7.4488663 23.570979 7.42637 23.537109 7.40625 L 17.964844 4.1269531 A 0.913 0.913 0 0 0 17.521484 4 L 17.519531 4 z M 27 23.779297 C 26.999876 23.862631 26.987835 23.944984 26.966797 24.023438 C 26.988469 23.944492 26.999925 23.863412 27 23.779297 z M 12.589844 7.9042969 L 17.5 10.914062 L 22.410156 7.9042969 C 22.806051 8.1835399 23.02147 8.2685378 23 8.7148438 L 18 11.779297 L 18 17.691406 L 23 14.748047 C 23.00751 15.367742 22.976889 15.440181 23.361328 15.697266 L 18.392578 18.621094 L 20.5 19.914062 L 25.410156 16.904297 C 25.809944 17.126339 25.999415 17.331834 26 17.714844 L 21 20.779297 L 21 26.691406 C 20.506885 26.934939 20.458489 26.906428 20 26.691406 L 15.150391 23.847656 L 14.21875 24.386719 A 0.953 0.953 0 0 1 14 23.779297 L 14 18.552734 L 12 19.779297 L 12 25.689453 C 11.455014 25.967582 11.550785 25.941561 11 25.691406 L 11 19.779297 L 6 16.714844 C 6 16.714844 5.9196637 16.21528 6.5898438 15.904297 L 11.5 18.914062 L 14 17.382812 L 14 17.222656 A 0.975 0.975 0 0 1 14.009766 17.09375 L 11.462891 15.595703 C 11.176891 15.427703 11 15.115297 11 14.779297 L 11 13.310547 L 12 12.699219 L 12 14.748047 L 17 17.691406 L 17 11.779297 L 12 8.7148438 C 11.996 8.1132298 12.075434 8.2567509 12.589844 7.9042969 z M 20 26.691406 L 20 20.779297 L 15 17.714844 L 15 23.748047 L 20 26.691406 z " />
    <path
       id="rect817"
       style="opacity:.001"
       d="M0 0h32v32H0z" />
  </g>
</svg>
