<svg xmlns="http://www.w3.org/2000/svg" id="svg4153" width="32" height="32" version="1.1">
    <defs id="rounded">
        <style type="text/css" id="current-color-scheme">
            .ColorScheme-Text{color:#eff0f1}
        </style>
    </defs>
    <g id="22-22-korgac" transform="translate(32 10)">
        <path id="rect4162" style="opacity:.001" d="M0 0h22v22H0z"/>
        <path id="path830" style="opacity:1;fill:currentColor" class="ColorScheme-Text" d="M11 3c-4.432 0-8 3.568-8 8s3.568 8 8 8 8-3.568 8-8-3.568-8-8-8zm0 1c3.878 0 7 3.122 7 7s-3.122 7-7 7-7-3.122-7-7 3.122-7 7-7Zm-.016.986A1 1 0 0 0 10 6v5a1 1 0 0 0 1 1h4a1 1 0 1 0 0-2h-3V6a1 1 0 0 0-1.016-1.014Z"/>
    </g>
    <g id="korgac">
        <path id="rect819" style="opacity:.001" d="M0 0h32v32H0z"/>
        <path id="path833" style="opacity:1;fill:currentColor" class="ColorScheme-Text" d="M16 4C9.352 4 4 9.352 4 16s5.352 12 12 12 12-5.352 12-12S22.648 4 16 4zm0 1c6.094 0 11 4.906 11 11s-4.906 11-11 11S5 22.094 5 16 9.906 5 16 5zm-.016 1.986A1 1 0 0 0 15 8v8a1 1 0 0 0 1 1h8a1 1 0 1 0 0-2h-7V8a1 1 0 0 0-1.016-1.014z"/>
    </g>
</svg>
