<svg xmlns="http://www.w3.org/2000/svg" id="svg7" width="32" height="32" version="1">
    <defs id="rounded">
        <style type="text/css" id="current-color-scheme">
            .ColorScheme-Text{color:#eff0f1}
        </style>
    </defs>
    <g id="22-22-kup" transform="translate(32 10)">
        <path id="rect820" style="opacity:.001" d="M0 0h22v22H0z"/>
        <path id="path828" style="opacity:1;fill:currentColor" class="ColorScheme-Text" d="M18.496 2.992a.5.5 0 0 0-.35.154l-2.568 2.569A7 7 0 0 0 11 4a7 7 0 0 0-4.58 1.713L3.854 3.146a.5.5 0 0 0-.36-.152.5.5 0 0 0-.348.86l2.569 2.568A7 7 0 0 0 4 11a7 7 0 0 0 1.713 4.58l-2.567 2.566a.5.5 0 1 0 .708.708l2.568-2.569A7 7 0 0 0 11 18a7 7 0 0 0 4.58-1.713l2.566 2.567a.5.5 0 1 0 .708-.708l-2.569-2.568A7 7 0 0 0 18 11a7 7 0 0 0-1.713-4.58l2.567-2.566a.5.5 0 0 0-.358-.862ZM11 5a6 6 0 0 1 3.875 1.418L11 10.293l-3.87-3.87A6 6 0 0 1 11 5ZM6.418 7.125 10.293 11l-3.87 3.87A6 6 0 0 1 5 11a6 6 0 0 1 1.418-3.875Zm9.158.006A6 6 0 0 1 17 11a6 6 0 0 1-1.418 3.875L11.707 11ZM11 11.707l3.87 3.87A6 6 0 0 1 11 17a6 6 0 0 1-3.875-1.418Z"/>
    </g>
    <g id="kup">
        <path id="rect817" style="opacity:.001" d="M0 0h32v32H0z"/>
        <path id="path827" style="opacity:1;fill:currentColor" class="ColorScheme-Text" d="M4.494 3.994a.5.5 0 0 0-.348.86l3.739 3.738A11 11 0 0 0 5 16a11 11 0 0 0 2.887 7.408l-3.739 3.738a.5.5 0 1 0 .707.708l3.737-3.737A11 11 0 0 0 16 27a11 11 0 0 0 7.408-2.885l3.738 3.739a.5.5 0 1 0 .708-.708l-3.739-3.738A11 11 0 0 0 27 16a11 11 0 0 0-2.885-7.406l3.74-3.74a.5.5 0 0 0-.347-.86.5.5 0 0 0-.36.152L23.41 7.885A11 11 0 0 0 16 5a11 11 0 0 0-7.408 2.885L4.854 4.146a.5.5 0 0 0-.36-.152zM16 6a10 10 0 0 1 6.701 2.594L16 15.293 9.299 8.592A10 10 0 0 1 16 6zM8.592 9.299 15.293 16l-6.7 6.701A10 10 0 0 1 6 16a10 10 0 0 1 2.592-6.701zm14.816.002A10 10 0 0 1 26 16a10 10 0 0 1-2.592 6.701L16.707 16l6.701-6.7zM16 16.707l6.701 6.701A10 10 0 0 1 16 26a10 10 0 0 1-6.7-2.592l6.7-6.701z"/>
    </g>
</svg>
