<svg xmlns="http://www.w3.org/2000/svg" id="svg" width="32" height="32" version="1.1">
    <defs id="rounded">
        <style type="text/css" id="current-color-scheme">
            .ColorScheme-Text{color:#eff0f1}
        </style>
    </defs>
    <g id="22-22-printer" transform="translate(32 10)">
        <path id="rect3009" style="opacity:.001" d="M0 0h22v22H0z"/>
        <path id="path847" style="opacity:1;fill:currentColor" class="ColorScheme-Text" d="M8 3c-1.108 0-2 .892-2 2v2H5c-1.108 0-2 .892-2 2v4c0 1.108.892 2 2 2h1v2c0 1.108.892 2 2 2h6c1.108 0 2-.892 2-2v-2h1c1.108 0 2-.892 2-2V9c0-1.108-.892-2-2-2h-1V5c0-1.108-.892-2-2-2Zm0 1h6c.571 0 1 .429 1 1v2H7V5c0-.571.429-1 1-1Zm-2 6a1 1 0 0 1 1 1 1 1 0 0 1-1 1 1 1 0 0 1-1-1 1 1 0 0 1 1-1zm1 3h8v4c0 .571-.429 1-1 1H8c-.571 0-1-.429-1-1v-2zm1.5 1a.5.5 0 1 0 0 1h5a.5.5 0 1 0 0-1zm0 2a.5.5 0 1 0 0 1h5a.5.5 0 1 0 0-1z"/>
    </g>
    <g id="printer">
        <path id="rect817" style="opacity:.001" d="M0 0h32v32H0z"/>
        <path id="rect827" style="opacity:1;fill:currentColor" class="ColorScheme-Text" d="M12 4c-1.662 0-3 1.338-3 3v3H7c-1.662 0-3 1.338-3 3v6c0 1.662 1.338 3 3 3h2v3c0 1.662 1.338 3 3 3h8c1.662 0 3-1.338 3-3v-3h2c1.662 0 3-1.338 3-3v-6c0-1.662-1.338-3-3-3h-2V7c0-1.662-1.338-3-3-3h-8zm0 1h8c1.125 0 2 .875 2 2v3H10V7c0-1.125.875-2 2-2zM8 15a1 1 0 0 1 1 1 1 1 0 0 1-1 1 1 1 0 0 1-1-1 1 1 0 0 1 1-1zm2 4h12v6c0 1.125-.875 2-2 2h-8c-1.125 0-2-.875-2-2v-6zm2.5 2a.5.5 0 1 0 0 1h7a.5.5 0 1 0 0-1h-7zm0 3a.5.5 0 1 0 0 1h7a.5.5 0 1 0 0-1h-7z"/>
    </g>
</svg>
