<svg xmlns="http://www.w3.org/2000/svg" id="svg32" width="32" height="32" x="0" y="0" version="1.1" xml:space="preserve">
    <defs id="rounded">
        <style type="text/css" id="current-color-scheme">
            .ColorScheme-Text{color:#eff0f1}
        </style>
    </defs>
    <g id="22-22-thunderbird" transform="translate(32 10)">
        <path id="rect878" style="opacity:.001" d="M0 0h22v22H0z"/>
        <path id="path5" style="opacity:.5;fill:currentColor" class="ColorScheme-Text" d="M12.818 8.31c-.567.232-1.101.485-1.824.485-.026 0-.052 0-.078-.002-1.292-.101-1.895-.021-2.838.898a1.001 1.001 0 0 1-.258.182c-.06.03-.116.051-.174.076a1 1 0 0 1-.209.098l1.557 1.748 4.914-1.545c.04-.148.078-.316.084-.3-.227-.923-.497-1.303-1.174-1.64zm-5.673 1.907a.994.994 0 0 1-1.174.537c0 .263-.073.548-.01.783a1 1 0 0 1-.36 1.049c.192.669.439 1.31.762 1.922l6.205 1.902c.038-.045.078-.081.116-.129.389-.49.754-1.068 1.054-1.724l-.033.015c-.092.044-.168.078-.225.104-.028.013-.051.021-.074.031l-.039.018-.045.015a2.32 2.32 0 0 1-.156.041l-.29.006a1 1 0 0 1-.669-1.61l.014-.019c.243-.313.751-1.042 1.158-1.765.112-.2.181-.373.271-.56l-4.656 1.462Z"/>
        <path id="path7" style="opacity:1;fill:currentColor" class="ColorScheme-Text" d="M9.397 2.795c-1.205.032-1.86 1.127-2.368 2.123-.185.094-.373.176-.556.278-.995.668-1.81 1.596-2.44 2.61A8.316 8.316 0 0 0 3.02 10.98c-.074 1.129.055 2.28.48 3.336.33.928.91 1.948 1.653 2.583.985.658 1.77 1.134 2.845 1.088-2.24-1.792-3.421-3.94-3.795-6.468-.011-.19-.035-.394.034-.344.255.405.314.39.757.62-.382-1.43.128-3.021.752-4.182.078-.09.163-.175.246-.262l.04.006c.013.223.04.448.066.664-.005.104.061.282.082.396-.016.04-.099.281-.131.582-.02.12-.02.237-.002.352.003.023.005.044.01.066.01.04.02.082.037.122a.671.671 0 0 0 .156.255.658.658 0 0 1 .162-.31c.02-.021.049-.034.07-.053.07-.06.144-.117.223-.16.016-.009.016-.006.031-.014.197-.1.39-.162.391-.162l.016-.015c.081-.034.163-.07.238-.106 1.127-1.099 2.193-1.29 3.613-1.18.782 0 1.227-.203 2-.55 1.187.496 1.696 1.27 2 2.55.115.963-1.43 3.27-2 3.998l-.004.002h.004c.012.002 1.718-.76 2.399-1.406-.486 3.755-3.186 6.082-4.399 6.606.937.063 2.22-.52 3.104-1.06-.403.432-.835.9-1.104 1.06 1.055-.295 2.054-.403 2.719-.888 0 0 .54-.494 1.104-1.138.075-.085.204-.203.28-.3.049-.061.094-.123.141-.184l.026-.031c1.187-1.453 1.765-3.258 1.722-4.895.009-1.984-.797-3.705-2.15-5.129a7.728 7.728 0 0 0-3.09-2.002c-1.035-.297-2.253-.448-3.289-.39-.104 0-.391.01-.783.043-.046-.087.011-.407.123-.487-.245.023-.471.342-.68.563l-.103.021c.188-.325.38-.69.603-.982-.694.13-.996.675-1.336 1.178-.098.032-.193.07-.289.107.252-.726.725-1.124 1.405-1.686Zm-1.8 4.2c.195-.003.37.03.372.03.003 0 .087.34-.072.63-.16.293-.532.41-.739.3-.21-.11-.21-.478-.046-.77.078-.146.292-.186.486-.19Z"/>
    </g>
    <g id="thunderbird">
        <path id="rect822" style="opacity:.001" d="M0 0h32v32H0z"/>
        <path id="path841" style="opacity:.5;fill:currentColor" class="ColorScheme-Text" d="M18.762 12.404c-.973.467-2.052.99-3.332.99-.833 0-1.478-.252-1.91-.367-.433-.114-.525-.124-.698-.025a1 1 0 0 1-.08.041c-.572.263-1.164.74-2.03 1.123-.353.173-.695.33-.915.48-.014.01-.015.015-.027.024l2.632 3.72 7.934-3.04c-.165-.756-.674-1.69-1.219-2.56a1 1 0 0 0-.002-.003c-.03-.044-.223-.243-.353-.383zm-9.237 2.522a1 1 0 0 1-1.334.705c.048.568-.009 1.212.254 1.625a1 1 0 0 1-1.304 1.424h-.002c.117.609.181 1.243.365 1.824a1 1 0 0 1 .047.266 1 1 0 0 1 0 .003l.011.055c.016.073.054.2.086.313l11.38 3.488c.06-.077.122-.137.181-.217.757-1.023 1.37-2.43 1.842-4.016-.123.039-.27.092-.363.116-.09.022-.164.037-.223.049l-.08.015-.024.002-.021.004c-.01.001-.022.004-.045.006-.012.001-.027 0-.053.002l-.13-.006a1 1 0 0 1 .091.008 1 1 0 0 1-.125-.01h-.002a1 1 0 0 1-.648-1.623c.604-.781.987-1.977.965-3.031l-7.99 3.062-2.878-4.064z"/>
        <path id="path849" style="opacity:1;fill:currentColor" class="ColorScheme-Text" d="M13.602 4c-1.88.05-3.133 1.828-3.946 3.365-.148.079-.298.155-.445.237-1.493 1.003-2.716 2.392-3.66 3.912a12.476 12.476 0 0 0-1.522 4.765c-.11 1.694.083 3.42.721 5.004a8.44 8.44 0 0 0 2.48 3.572c1.48.987 2.958 2 4.573 1.932-1.536-.237-2.964-1.645-4.006-3.142-1.139-1.6-1.235-2.803-1.262-2.844l.016.004c-.38-1.203-.608-2.446-.746-3.717-.018-.284-.052-.593.05-.518.384.607 1.081.878 1.747 1.223-.631-.992-.688-2.206-.584-3.385.104-1.182.37-2.33 1.103-3.18.044-.05.096-.096.14-.146.027.256.059.51.089.758-.01.228.214.706.105.754-.22.666-.432 1.526.096 2.107.167-.752 1.077-1.117 1.724-1.433.733-.318 1.324-.8 2.05-1.133.955-.548 1.877.26 3.105.26 1.173 0 2.413-.678 3.574-1.2.27.28.753.733.965 1.065h-.004c.605.967 1.282 2.092 1.42 3.195.172 1.443-.324 3.042-1.178 4.135l-.008.002h.006c.018.002 1.377-.23 2.399-1.2-.73 5.632-4.18 8.808-6 9.594 2.422.163 4.195-1.199 4.199-1.199.003 0-.335.683-1.2 1.2 1.584-.444 2.48-.59 3.479-1.319 0 0 .811-.441 1.658-1.406.113-.129.306-.307.422-.453.072-.091.14-.184.211-.276l.037-.045c1.783-2.179 2.65-4.889 2.586-7.343.013-2.976-1.196-5.558-3.226-7.694a11.595 11.595 0 0 0-4.637-3.002c-1.69-.485-3.723-.727-5.354-.57a12.6 12.6 0 0 0-.775.05c-.054-.15.038-.615.2-.73-.361.034-.693.496-1 .826-.062.012-.116.025-.173.037.28-.485.569-1.028.903-1.462-1.041.194-1.495 1.014-2.004 1.767-.16.053-.315.115-.471.174.373-1.117 1.11-1.687 2.143-2.541zm-2.998 7c.194-.004.369.03.37.03.004 0 .088.34-.072.63-.16.292-.532.409-.738.299-.21-.11-.21-.478-.047-.77.079-.146.292-.185.487-.189z"/>
    </g>
</svg>
