<?xml version="1.0" encoding="UTF-8" standalone="no"?>
<svg
   id="svg2"
   width="32"
   height="32"
   version="1.1"
   xmlns="http://www.w3.org/2000/svg"
   xmlns:svg="http://www.w3.org/2000/svg">
  <defs
     id="rounded">
    <style
       type="text/css"
       id="current-color-scheme">
            .ColorScheme-Text{color:#eff0f1}
        </style>
  </defs>
  <g
     id="22-22-tools-report-bug"
     transform="translate(32)">
    <path
       id="path9"
       style="opacity:.001"
       d="M0 10v22h22V10Z" />
    <path
       id="path839"
       style="opacity:1;fill:currentColor"
       class="ColorScheme-Text"
       d="M 5.857,13 C 4.2777464,12.996673 2.9966729,14.277746 3,15.857 v 10.286 c -0.00333,1.579254 1.2777464,2.860327 2.857,2.857 h 10.286 c 1.579254,0.0033 2.860327,-1.277746 2.857,-2.857 V 15.857 C 19.003327,14.277746 17.722254,12.996673 16.143,13 Z M 7,19 c -1.3333328,0 -1.3333328,-2 0,-2 1.3333328,0 1.3333328,2 0,2 z m 8,0 c -1.333333,0 -1.333333,-2 0,-2 1.333333,0 1.333333,2 0,2 z m 0,6 H 7 c 0,-2.209139 1.790861,-4 4,-4 2.209139,0 4,1.790861 4,4 z" />
  </g>
  <g
     id="tools-report-bug">
    <path
       id="path819"
       style="opacity:.001"
       d="M0 0v32h32V0Z" />
    <path
       id="path833"
       style="opacity:1;fill:currentColor"
       class="ColorScheme-Text"
       d="M 8.287,4 C 5.9178446,3.9944565 3.9955621,5.9158423 4,8.285 v 15.428 c -0.00443,2.369479 1.917521,4.291434 4.287,4.287 h 15.426 c 2.369479,0.0044 4.291434,-1.917521 4.287,-4.287 V 8.285 C 28.004438,5.9158423 26.082155,3.9944565 23.713,4 Z M 9.5,13 c -1.9999991,0 -1.9999991,-3 0,-3 1.999999,0 1.999999,3 0,3 z m 13,0 c -1.999999,0 -1.999999,-3 0,-3 1.999999,0 1.999999,3 0,3 z M 22,22 H 10 c 0,-3.313708 2.686292,-6 6,-6 3.313708,0 6,2.686292 6,6 z" />
  </g>
</svg>
