<svg xmlns="http://www.w3.org/2000/svg" id="svg2" width="32" height="32" version="1.1">
    <defs id="rounded">
        <style type="text/css" id="current-color-scheme">
            .ColorScheme-Text{color:#eff0f1}
        </style>
    </defs>
    <g id="22-22-touchpad_enabled" transform="translate(0 -1052.36)">
        <path id="rect839" style="opacity:.001" d="M0 1030.36h22v22H0z"/>
        <path id="rect825" style="opacity:1;fill:currentColor" class="ColorScheme-Text" transform="translate(0 1030.362)" d="M4 3c-1.108 0-2 .892-2 2v12c0 1.108.892 2 2 2h13c1.108 0 2-.892 2-2V5c0-1.108-.892-2-2-2Zm0 1h13c.571 0 1 .429 1 1v12c0 .571-.429 1-1 1H4c-.571 0-1-.429-1-1V5c0-.571.429-1 1-1Zm1 9c-.554 0-1 .446-1 1v2c0 .554.446 1 1 1h4c.554 0 1-.446 1-1v-2c0-.554-.446-1-1-1Zm7 0c-.554 0-1 .446-1 1v2c0 .554.446 1 1 1h4c.554 0 1-.446 1-1v-2c0-.554-.446-1-1-1z"/>
    </g>
    <g id="22-22-touchpad_disabled" transform="translate(32 -1052.36)">
        <path id="rect845" style="opacity:.001" d="M0 1030.36h22v22H0z"/>
        <path id="path847" style="opacity:.5;fill:currentColor" class="ColorScheme-Text" transform="translate(0 1030.362)" d="M4 3c-1.108 0-2 .892-2 2v12c0 1.108.892 2 2 2h13c1.108 0 2-.892 2-2V5c0-1.108-.892-2-2-2Zm0 1h13c.571 0 1 .429 1 1v12c0 .571-.429 1-1 1H4c-.571 0-1-.429-1-1V5c0-.571.429-1 1-1Zm1 9c-.554 0-1 .446-1 1v2c0 .554.446 1 1 1h4c.554 0 1-.446 1-1v-2c0-.554-.446-1-1-1Zm7 0c-.554 0-1 .446-1 1v2c0 .554.446 1 1 1h4c.554 0 1-.446 1-1v-2c0-.554-.446-1-1-1z"/>
    </g>
    <g id="touchpad_enabled">
        <path id="rect820" style="opacity:.001" d="M0 0h32v32H0z"/>
        <path id="path834" style="opacity:1;fill:currentColor" class="ColorScheme-Text" d="M6.059 4C4.364 4 3 5.338 3 7v18c0 1.662 1.364 3 3.059 3H25.94C27.636 28 29 26.662 29 25V7c0-1.662-1.364-3-3.059-3H6.06zm0 1H25.94C27.11 5 28 5.885 28 7v18c0 1.115-.89 2-2.059 2H6.06C4.89 27 4 26.115 4 25V7c0-1.115.89-2 2.059-2zM7.5 19c-.831 0-1.5.669-1.5 1.5v3c0 .831.669 1.5 1.5 1.5h6c.831 0 1.5-.669 1.5-1.5v-3c0-.831-.669-1.5-1.5-1.5h-6zm11 0c-.831 0-1.5.669-1.5 1.5v3c0 .831.669 1.5 1.5 1.5h6c.831 0 1.5-.669 1.5-1.5v-3c0-.831-.669-1.5-1.5-1.5h-6z"/>
    </g>
    <g id="touchpad_disabled" transform="translate(32)">
        <path id="rect848" style="opacity:.001" d="M0 0h32v32H0z"/>
        <path id="path850" style="opacity:.5;fill:currentColor" class="ColorScheme-Text" d="M6.059 4C4.364 4 3 5.338 3 7v18c0 1.662 1.364 3 3.059 3H25.94C27.636 28 29 26.662 29 25V7c0-1.662-1.364-3-3.059-3Zm0 1H25.94C27.11 5 28 5.885 28 7v18c0 1.115-.89 2-2.059 2H6.06C4.89 27 4 26.115 4 25V7c0-1.115.89-2 2.059-2ZM7.5 19c-.831 0-1.5.669-1.5 1.5v3c0 .831.669 1.5 1.5 1.5h6c.831 0 1.5-.669 1.5-1.5v-3c0-.831-.669-1.5-1.5-1.5Zm11 0c-.831 0-1.5.669-1.5 1.5v3c0 .831.669 1.5 1.5 1.5h6c.831 0 1.5-.669 1.5-1.5v-3c0-.831-.669-1.5-1.5-1.5Z"/>
    </g>
</svg>
