<svg xmlns="http://www.w3.org/2000/svg" id="svg29" width="32" height="32" version="1.1">
    <defs id="rounded">
        <style type="text/css" id="current-color-scheme">
            .ColorScheme-Text{color:#eff0f1}.ColorScheme-NegativeText{color:#da4453}.ColorScheme-Highlight{color:#3daee9}
        </style>
    </defs>
    <g id="22-22-update-none" transform="translate(0 -22)">
        <path id="rect924" style="opacity:.001" d="M0 0h22v22H0z"/>
        <path id="path845" style="opacity:1;fill:currentColor" class="ColorScheme-Text" d="M10.943 3a8 8 0 0 0-6.129 2.922 8.009 8.009 0 0 0 .168 10.351l.752-.658a6.996 6.996 0 0 1-.146-9.056A6.997 6.997 0 0 1 14.5 4.936l-.5.869 2.48-.301-.98-2.299-.5.867A7.975 7.975 0 0 0 10.943 3Zm6.073 2.729-.752.658a6.994 6.994 0 0 1 .146 9.054 6.994 6.994 0 0 1-8.91 1.621l.5-.867-2.482.301.982 2.299.5-.865a8.005 8.005 0 0 0 10.184-1.852 7.988 7.988 0 0 0 1.814-5.207 7.983 7.983 0 0 0-1.982-5.142ZM11 6l-4 4h2v3a2 2 0 0 0 2 2 2 2 0 0 0 2-2v-3h2z"/>
    </g>
    <g id="22-22-update-high" transform="translate(32 -22)">
        <path id="rect952" style="opacity:.001" d="M0 0h22v22H0z"/>
        <g id="g886" transform="translate(0 -.001)">
            <path id="path873" style="opacity:1;fill:currentColor" class="ColorScheme-Text" transform="translate(-22 .001)" d="M32.943 3a8 8 0 0 0-6.129 2.922 8.006 8.006 0 0 0 .168 10.35l.752-.659a6.994 6.994 0 0 1-.146-9.054A6.997 6.997 0 0 1 36.5 4.936l-.5.867 2.48-.3-.98-2.298-.5.865A7.972 7.972 0 0 0 32.943 3Zm6.073 2.727-.752.658a6.985 6.985 0 0 1 1.578 6.066c.32.168.615.378.879.625a7.988 7.988 0 0 0-1.705-7.35zm-6.018.271-4 4h2v3H31A2 2 0 0 0 31 13a2 2 0 0 0 2 2 2 2 0 0 0 2-2 2 2 0 0 0-.002-.047V9.998h2zM30 16.195l-2.482.3.982 2.298.5-.865a7.993 7.993 0 0 0 6.082.795 4.002 4.002 0 0 1-.623-.883 6.978 6.978 0 0 1-4.959-.78Z"/>
            <path id="path875" style="opacity:1;fill:currentColor" class="ColorScheme-NegativeText" d="M16 13a3 3 0 0 0-3 3 3 3 0 0 0 3 3 3 3 0 0 0 3-3 3 3 0 0 0-3-3z"/>
        </g>
    </g>
    <g id="22-22-update-low" transform="translate(96 -22)">
        <path id="rect944" style="opacity:.001" d="M0 0h22v22H0z"/>
        <g id="g904" transform="translate(0 -.001)">
            <path id="path891" style="opacity:1;fill:currentColor" class="ColorScheme-Text" transform="translate(-66 .001)" d="M76.943 3a8 8 0 0 0-6.129 2.922 8.006 8.006 0 0 0 .168 10.35l.752-.659a6.994 6.994 0 0 1-.146-9.054A6.997 6.997 0 0 1 80.5 4.936l-.5.867 2.48-.3-.98-2.298-.5.865A7.972 7.972 0 0 0 76.943 3Zm6.073 2.727-.752.658a6.985 6.985 0 0 1 1.578 6.066c.32.168.615.378.879.625a7.988 7.988 0 0 0-1.705-7.35zm-6.018.271-4 4h2v3H75A2 2 0 0 0 75 13a2 2 0 0 0 2 2 2 2 0 0 0 2-2 2 2 0 0 0-.002-.047V9.998h2zM74 16.195l-2.482.3.982 2.298.5-.865a7.993 7.993 0 0 0 6.082.795 4.002 4.002 0 0 1-.623-.883 6.978 6.978 0 0 1-4.959-.78Z"/>
            <path id="path893" style="opacity:1;fill:currentColor" class="ColorScheme-Highlight" d="M16 13a3 3 0 0 0-3 3 3 3 0 0 0 3 3 3 3 0 0 0 3-3 3 3 0 0 0-3-3z"/>
        </g>
    </g>
    <g id="22-22-update-medium" transform="translate(64 -22)">
        <path id="rect938" style="opacity:.001" d="M0 0h22v22H0z"/>
        <g id="g922" transform="translate(0 -.001)">
            <path id="path909" style="opacity:1;fill:currentColor" class="ColorScheme-Text" transform="translate(-44 .001)" d="M54.943 3a8 8 0 0 0-6.129 2.922 8.006 8.006 0 0 0 .168 10.35l.752-.659a6.994 6.994 0 0 1-.146-9.054A6.997 6.997 0 0 1 58.5 4.936l-.5.867 2.48-.3-.98-2.298-.5.865A7.972 7.972 0 0 0 54.943 3Zm6.073 2.727-.752.658a6.985 6.985 0 0 1 1.578 6.066c.32.168.615.378.879.625a7.988 7.988 0 0 0-1.705-7.35zm-6.018.271-4 4h2v3H53A2 2 0 0 0 53 13a2 2 0 0 0 2 2 2 2 0 0 0 2-2 2 2 0 0 0-.002-.047V9.998h2zM52 16.195l-2.482.3.982 2.298.5-.865a7.993 7.993 0 0 0 6.082.795 4.002 4.002 0 0 1-.623-.883 6.978 6.978 0 0 1-4.959-.78Z"/>
            <path id="path911" style="opacity:1;fill:#f67400" d="M16 13a3 3 0 0 0-3 3 3 3 0 0 0 3 3 3 3 0 0 0 3-3 3 3 0 0 0-3-3z"/>
        </g>
    </g>
    <g id="update-high" transform="translate(32)">
        <path id="rect832" style="opacity:.001" d="M0 0h32v32H0z"/>
        <path id="path840" style="opacity:1;fill:currentColor" class="ColorScheme-Text" d="M15.982 3.992A12 12 0 0 0 7.48 7.5a12 12 0 0 0-.674 16.23l.71-.709a11 11 0 0 1 .67-14.814A11 11 0 0 1 21.49 6.492l-.863 1.531 3.596-.267-1.631-3.217-.612 1.086a12 12 0 0 0-5.998-1.633Zm9.141 4.248-.709.71a11 11 0 0 1 2.451 8.421c.33.134.645.296.936.494a12 12 0 0 0-2.678-9.625ZM16 9l-6 6h3v4a3 3 0 0 0 6 0v-4h3.002zm-4.629 14.963-3.594.281.455.889-.01.01a12 12 0 0 0 .024.017l1.172 2.293.598-1.066a12 12 0 0 0 12.254-.211 5.043 5.043 0 0 1-.825-.672 11 11 0 0 1-10.945.014Z"/>
        <path id="path882" style="opacity:1;fill:currentColor" class="ColorScheme-NegativeText" d="M25 18a4 4 0 0 0-4 4 4 4 0 0 0 4 4 4 4 0 0 0 4-4 4 4 0 0 0-4-4z"/>
    </g>
    <g id="update-none" transform="translate(62.747 -1.634)">
        <path id="rect895" style="opacity:.001" d="M-62.75 1.63h32v32h-32z"/>
        <path id="path897" style="opacity:1;fill:currentColor" class="ColorScheme-Text" d="M-46.764 5.626a12 12 0 0 0-8.504 3.508 12 12 0 0 0-.674 16.23l.71-.708a11 11 0 0 1 .67-14.815 11 11 0 0 1 13.305-1.715l-.863 1.531 3.596-.267-1.631-3.217-.611 1.086a12 12 0 0 0-5.998-1.633zm9.14 4.248-.709.71a11 11 0 0 1-.672 14.814 11 11 0 0 1-13.242 1.754l.871-1.555-3.594.281.456.889-.01.01a12 12 0 0 0 .023.017l1.172 2.293.598-1.066a12 12 0 0 0 14.433-1.916 12 12 0 0 0 .674-16.23zm-9.123.76-6 6h3v4a3 3 0 0 0 6 0v-4h3.002z"/>
    </g>
    <g id="update-medium" transform="translate(64)">
        <path id="rect929" style="opacity:.001" d="M0 0h32v32H0z"/>
        <path id="path931" style="opacity:1;fill:currentColor" class="ColorScheme-Text" d="M15.982 3.992A12 12 0 0 0 7.48 7.5a12 12 0 0 0-.674 16.23l.71-.709a11 11 0 0 1 .67-14.814A11 11 0 0 1 21.49 6.492l-.863 1.531 3.596-.267-1.631-3.217-.612 1.086a12 12 0 0 0-5.998-1.633Zm9.141 4.248-.709.71a11 11 0 0 1 2.451 8.421c.33.134.645.296.936.494a12 12 0 0 0-2.678-9.625ZM16 9l-6 6h3v4a3 3 0 0 0 6 0v-4h3.002zm-4.629 14.963-3.594.281.455.889-.01.01a12 12 0 0 0 .024.017l1.172 2.293.598-1.066a12 12 0 0 0 12.254-.211 5.043 5.043 0 0 1-.825-.672 11 11 0 0 1-10.945.014Z"/>
        <path id="path933" style="opacity:1;fill:#f67400" d="M25 18a4 4 0 0 0-4 4 4 4 0 0 0 4 4 4 4 0 0 0 4-4 4 4 0 0 0-4-4z"/>
    </g>
    <g id="update-low" transform="translate(96)">
        <path id="rect937" style="opacity:.001" d="M0 0h32v32H0z"/>
        <path id="path939" style="opacity:1;fill:currentColor" class="ColorScheme-Text" d="M15.982 3.992A12 12 0 0 0 7.48 7.5a12 12 0 0 0-.674 16.23l.71-.709a11 11 0 0 1 .67-14.814A11 11 0 0 1 21.49 6.492l-.863 1.531 3.596-.267-1.631-3.217-.612 1.086a12 12 0 0 0-5.998-1.633Zm9.141 4.248-.709.71a11 11 0 0 1 2.451 8.421c.33.134.645.296.936.494a12 12 0 0 0-2.678-9.625ZM16 9l-6 6h3v4a3 3 0 0 0 6 0v-4h3.002zm-4.629 14.963-3.594.281.455.889-.01.01a12 12 0 0 0 .024.017l1.172 2.293.598-1.066a12 12 0 0 0 12.254-.211 5.043 5.043 0 0 1-.825-.672 11 11 0 0 1-10.945.014Z"/>
        <path id="path941" style="opacity:1;fill:currentColor" class="ColorScheme-Highlight" d="M25 18a4 4 0 0 0-4 4 4 4 0 0 0 4 4 4 4 0 0 0 4-4 4 4 0 0 0-4-4z"/>
    </g>
</svg>
