<svg xmlns="http://www.w3.org/2000/svg" id="svg2" width="32" height="32" version="1.1">
    <defs id="rounded">
        <style type="text/css" id="current-color-scheme">
            .ColorScheme-Text{color:#eff0f1}
        </style>
    </defs>
    <g id="22-22-vlc" transform="translate(32 10)">
        <path id="rect4246" style="opacity:.001" d="M0 0h22v22H0z"/>
        <path id="rect4271" style="opacity:1;fill:currentColor" class="ColorScheme-Text" d="M10 3c-.422 0-.906.088-1.143.945L5.256 17H4a1 1 0 0 0-1 1 1 1 0 0 0 1 1h14a1 1 0 0 0 1-1 1 1 0 0 0-1-1h-1.258l-3.59-13.014C12.964 3.021 12.571 3.001 12 3Zm-.12 1h2.24l.552 2H9.328ZM8.503 9h4.996l.828 3H7.674Zm-1.656 6h8.308l.551 2h-9.41Z"/>
    </g>
    <g id="vlc">
        <path id="rect817" style="opacity:.001" d="M0 0h32v32H0z"/>
        <path id="path837" style="opacity:1;fill:currentColor" class="ColorScheme-Text" d="M14.5 4c-.633.001-1.358.133-1.713 1.418L7.385 25H5.5A1.5 1.5 0 0 0 4 26.5 1.5 1.5 0 0 0 5.5 28h21a1.5 1.5 0 0 0 1.5-1.5 1.5 1.5 0 0 0-1.5-1.5h-1.887L19.23 5.48C18.946 4.033 18.356 4.001 17.5 4h-3zm0 1h3c.413 0 .551.047.533.035-.018-.012.097.04.213.637a1 1 0 0 0 .018.074L19.162 9h-6.324l.914-3.316c.133-.483.26-.57.324-.612.064-.04.178-.071.424-.072zm-2.49 7h7.98l1.38 5H10.63l1.38-5zm-2.207 8h12.392l1.38 5H8.423l1.379-5z"/>
    </g>
</svg>
