<?xml version="1.0" encoding="UTF-8" standalone="no"?>
<svg
   id="svg129"
   width="308"
   height="268"
   version="1"
   xmlns:xlink="http://www.w3.org/1999/xlink"
   xmlns="http://www.w3.org/2000/svg"
   xmlns:svg="http://www.w3.org/2000/svg">
  <defs
     id="rounded">
    <linearGradient
       id="linearGradient2967">
      <stop
         id="stop2963"
         style="stop-color:#000000;stop-opacity:0.5"
         offset="0" />
      <stop
         id="stop2965"
         style="stop-color:#000000;stop-opacity:0"
         offset="1" />
    </linearGradient>
    <linearGradient
       id="linearGradient4153">
      <stop
         id="stop4149"
         style="stop-color:#000000;stop-opacity:0.698"
         offset="0" />
      <stop
         id="stop4151"
         style="stop-color:#000000;stop-opacity:0"
         offset="1" />
    </linearGradient>
    <linearGradient
       id="linearGradient3823">
      <stop
         id="stop3819"
         style="stop-color:#000000;stop-opacity:0.502"
         offset="0" />
      <stop
         id="stop3821"
         style="stop-color:#000000;stop-opacity:0"
         offset="1" />
    </linearGradient>
    <style
       type="text/css"
       id="current-color-scheme">
        .ColorScheme-Text {
        color:#eff0f1;
        }
        .ColorScheme-NegativeText {
        color:#da4453;
        }
        .ColorScheme-Highlight {
        color:#3daee9;
        }
        .ColorScheme-Background {
        color:#31363b;
      }
      .ColorScheme-ButtonBackground {
        color:#444c53;
      }
    </style>
    <linearGradient
       id="linearGradient993">
      <stop
         id="stop989"
         style="stop-color:#000000;stop-opacity:1"
         offset="0" />
      <stop
         id="stop991"
         style="stop-color:#000000;stop-opacity:0"
         offset="1" />
    </linearGradient>
    <linearGradient
       id="linearGradient985">
      <stop
         id="stop981"
         style="stop-color:#000000;stop-opacity:1"
         offset="0" />
      <stop
         id="stop983"
         style="stop-color:#000000;stop-opacity:0"
         offset="1" />
    </linearGradient>
    <radialGradient
       id="radialGradient987"
       cx="129.71"
       cy="144.271"
       r="11"
       fx="129.71"
       fy="144.271"
       gradientTransform="matrix(1.8641918,-1.8641918,2.1818194,2.1818194,-372.5768,-23.969379)"
       gradientUnits="userSpaceOnUse"
       xlink:href="#linearGradient985" />
    <linearGradient
       id="linearGradient995"
       x1="148"
       x2="148"
       y1="143"
       y2="128.5"
       gradientTransform="matrix(1.9999998,0,0,12.571323,-73.999963,-1620.4146)"
       gradientUnits="userSpaceOnUse"
       xlink:href="#linearGradient4153" />
    <linearGradient
       id="linearGradient1003"
       x1="148"
       x2="148"
       y1="143"
       y2="128.5"
       gradientTransform="matrix(0,1.9999998,-12.571426,0,1933.4282,-208.99996)"
       gradientUnits="userSpaceOnUse"
       xlink:href="#linearGradient4153" />
    <linearGradient
       id="linearGradient1007"
       x1="148"
       x2="148"
       y1="143"
       y2="128.5"
       gradientTransform="matrix(0,1.9999998,12.571559,0,-1485.4456,-208.99996)"
       gradientUnits="userSpaceOnUse"
       xlink:href="#linearGradient4153" />
    <linearGradient
       id="linearGradient1022"
       x1="148"
       x2="148"
       y1="143"
       y2="128.5"
       gradientTransform="matrix(1.9999998,0,0,-12.571429,-73.999963,1798.4285)"
       gradientUnits="userSpaceOnUse"
       xlink:href="#linearGradient4153" />
    <radialGradient
       id="radialGradient876"
       cx="129.71"
       cy="144.271"
       r="11"
       fx="129.71"
       fy="144.271"
       gradientTransform="matrix(-1.8641918,-1.8641918,-2.1818194,2.1818194,820.5768,-23.969379)"
       gradientUnits="userSpaceOnUse"
       xlink:href="#linearGradient985" />
    <radialGradient
       id="radialGradient882"
       cx="129.65662"
       cy="147.28699"
       r="11"
       fx="129.65662"
       fy="167.49907"
       gradientTransform="matrix(3.3766857,3.3766859,5.0809067,-5.0809067,-989.36471,426.54998)"
       gradientUnits="userSpaceOnUse"
       xlink:href="#linearGradient2967" />
    <radialGradient
       id="radialGradient884"
       cx="129.71"
       cy="144.271"
       r="11"
       fx="129.71"
       fy="144.271"
       gradientTransform="matrix(-1.8641918,1.8641918,-2.1818194,-2.1818194,820.5768,201.96938)"
       gradientUnits="userSpaceOnUse"
       xlink:href="#linearGradient985" />
    <radialGradient
       id="radialGradient882-3"
       cx="129.65662"
       cy="147.28699"
       r="11"
       fx="129.65662"
       fy="167.49907"
       gradientTransform="matrix(-3.3766857,3.3766859,-5.0809067,-5.0809067,1437.3647,426.54998)"
       gradientUnits="userSpaceOnUse"
       xlink:href="#linearGradient2967" />
    <radialGradient
       id="radialGradient882-35"
       cx="129.65662"
       cy="147.28699"
       r="11"
       fx="129.65662"
       fy="167.49907"
       gradientTransform="matrix(-3.3766857,-3.3766859,-5.0809067,5.0809067,1437.3647,-248.54999)"
       gradientUnits="userSpaceOnUse"
       xlink:href="#linearGradient2967" />
    <radialGradient
       id="radialGradient882-1"
       cx="129.65662"
       cy="147.28699"
       r="11"
       fx="129.65662"
       fy="167.49907"
       gradientTransform="matrix(3.3766857,-3.3766859,5.0809067,5.0809067,-989.36471,-248.54998)"
       gradientUnits="userSpaceOnUse"
       xlink:href="#linearGradient2967" />
  </defs>
  <rect
     id="hint-tile-center"
     style="opacity:1;fill:#ff0000"
     width="7"
     height="7"
     x="0"
     y="-7" />
  <path
     id="topright"
     style="opacity:0.9;fill:currentColor;stroke-width:0.416647"
     class="ColorScheme-Background"
     d="M 118,5.000917 V 15 h 10 c 0,-5.5323438 -4.45794,-9.9953889 -10,-9.999083 z" />
  <rect
     id="top"
     style="opacity:0.9;fill:currentColor;stroke-width:0.749998"
     class="ColorScheme-Background"
     width="108"
     height="10"
     x="10"
     y="5" />
  <rect
     id="center"
     style="opacity:0.9;fill:currentColor;stroke-width:1.35"
     class="ColorScheme-Background"
     width="108"
     height="108"
     x="10"
     y="15" />
  <path
     id="topleft"
     style="opacity:0.9;fill:currentColor;stroke-width:0.416666"
     class="ColorScheme-Background"
     d="M 10,5.000002 V 15 H 0 C 0,9.4629423 4.45794,4.9999995 10,5.000002 Z" />
  <path
     id="bottomright"
     style="opacity:0.9;fill:currentColor;stroke-width:0.416647"
     class="ColorScheme-Background"
     d="M 118,132.99908 V 123 h 10 c 0.005,5.54209 -4.57524,10.00023 -10,9.99908 z" />
  <rect
     id="bottom"
     style="opacity:0.9;fill:currentColor;stroke-width:0.749998"
     class="ColorScheme-Background"
     width="108"
     height="10"
     x="10"
     y="-133"
     transform="scale(1,-1)" />
  <path
     id="bottomleft"
     style="opacity:0.9;fill:currentColor;stroke-width:0.416666"
     class="ColorScheme-Background"
     d="M 10,133 V 123 H 1.7081495e-5 C -4.419375e-6,128.53215 4.4628969,133.00006 10,133 Z" />
  <rect
     id="left"
     style="opacity:0.9;fill:currentColor;stroke-width:0.749998"
     class="ColorScheme-Background"
     width="108"
     height="10"
     x="15"
     y="-10"
     transform="rotate(90)" />
  <rect
     id="right"
     style="opacity:0.9;fill:currentColor;stroke-width:0.749998"
     class="ColorScheme-Background"
     width="108"
     height="10"
     x="15"
     y="-128"
     transform="rotate(90)" />
  <rect
     id="hint-top-margin"
     style="opacity:1;fill:#ff0000"
     width="8"
     height="12"
     x="60"
     y="15" />
  <rect
     id="hint-left-margin"
     style="opacity:1;fill:#ff0000"
     width="12"
     height="8"
     x="10"
     y="65" />
  <rect
     id="hint-right-margin"
     style="opacity:1;fill:#ff0000"
     width="12"
     height="8"
     x="106"
     y="65" />
  <rect
     id="hint-bottom-margin"
     style="opacity:1;fill:#ff0000"
     width="8"
     height="12"
     x="60"
     y="111" />
  <path
     id="mask-topright"
     style="opacity:1;stroke-width:0.416648"
     d="M 118,140.00092 V 150 h 10 c 0.004,-5.53247 -4.46689,-9.9962 -10,-9.99908 z" />
  <rect
     id="mask-top"
     style="opacity:1;stroke-width:0.75"
     width="108"
     height="10"
     x="10"
     y="140" />
  <rect
     id="mask-center"
     style="opacity:1;stroke-width:1.35"
     width="108"
     height="108"
     x="10"
     y="150" />
  <path
     id="mask-topleft"
     style="opacity:1;stroke-width:0.416667"
     d="m 10,140 v 10 H 0 c 0.00274134,-5.53171 4.4735163,-9.99741 10,-10 z" />
  <path
     id="mask-bottomright"
     style="opacity:1;stroke-width:0.416666"
     d="m 118,268 v -10 h 10 c 3e-4,5.52864 -4.46879,10.00809 -10,10 z" />
  <rect
     id="mask-bottom"
     style="opacity:1;stroke-width:0.749999"
     width="108"
     height="10"
     x="10"
     y="-268"
     transform="scale(1,-1)" />
  <path
     id="mask-bottomleft"
     style="opacity:1;stroke-width:0.416667"
     d="M 10,268 V 258 H 0 c -0.00432634,5.53305 4.4712871,9.99878 10,10 z" />
  <rect
     id="mask-left"
     style="opacity:1;stroke-width:0.75"
     width="108"
     height="10"
     x="150"
     y="-10"
     transform="rotate(90)" />
  <rect
     id="mask-right"
     style="opacity:1;stroke-width:0.75"
     width="108"
     height="10"
     x="150"
     y="-128"
     transform="rotate(90)" />
  <g
     id="shadow-top">
    <path
       id="rect1029"
       style="opacity:0.001"
       d="m 184,18 h 80 v 31 h -80 z" />
    <path
       id="rect953"
       style="opacity:1;fill:url(#linearGradient995);fill-opacity:1;stroke-width:2.50713"
       d="M 184,-4.9996236 V 39 h 80 V -4.9996236 Z" />
  </g>
  <g
     id="shadow-right">
    <path
       id="rect1037"
       style="opacity:0.001"
       transform="rotate(90)"
       d="m 49,-295 h 80 v 31 H 49 Z" />
    <path
       id="path999"
       style="opacity:1;fill:url(#linearGradient1003);fill-opacity:1;stroke-width:2.50714"
       d="M 274,48.999996 V 129 h 44 V 48.999996 Z" />
  </g>
  <g
     id="shadow-left">
    <path
       id="rect1039"
       style="opacity:0.001"
       transform="rotate(90)"
       d="m 49,-184 h 80 v 31 H 49 Z" />
    <path
       id="path1005"
       style="opacity:1;fill:url(#linearGradient1007);fill-opacity:1;stroke-width:2.50714"
       d="M 129.99956,48.999996 V 129 H 174 V 48.999996 Z" />
  </g>
  <g
     id="shadow-bottom">
    <path
       id="rect1031"
       style="opacity:0.001"
       d="m 184,129 h 80 v 31 h -80 z" />
    <path
       id="path1011"
       style="opacity:1;fill:url(#linearGradient1022);fill-opacity:1;stroke-width:2.50714"
       d="m 184,139 v 44 h 80 v -44 z" />
  </g>
  <rect
     id="shadow-hint-right-margin"
     style="opacity:1;fill:#ff0000;stroke-width:2.50714"
     width="44"
     height="7"
     x="274"
     y="80" />
  <rect
     id="shadow-hint-bottom-margin"
     style="opacity:1;fill:#ff0000;stroke-width:2.50714"
     width="7"
     height="44"
     x="220"
     y="139" />
  <rect
     id="shadow-hint-left-margin"
     style="opacity:1;fill:#ff0000;stroke-width:2.50714"
     width="44"
     height="7"
     x="130"
     y="80" />
  <rect
     id="shadow-hint-top-margin"
     style="opacity:1;fill:#ff0000;stroke-width:2.50713"
     width="7"
     height="44"
     x="220"
     y="-5" />
  <rect
     id="shadow-center"
     style="opacity:0.001"
     width="80"
     height="80"
     x="184"
     y="49" />
  <path
     id="shadow-bottomleft"
     style="opacity:1;fill:url(#radialGradient882);fill-opacity:1"
     d="m 130,183 v -54 h 44 c 0.002,5.52976 4.46725,9.9964 10,10 v 44 z" />
  <path
     id="shadow-bottomright"
     style="fill:url(#radialGradient882-3);fill-opacity:1"
     d="m 318,183 v -54 h -44 c -0.001,5.53185 -4.4725,9.99933 -10,10 v 44 z" />
  <path
     id="shadow-topright"
     style="fill:url(#radialGradient882-35);fill-opacity:1"
     d="m 318,-5.000004 v 54 h -44 c 0.002,-5.530738 -4.46652,-9.998356 -10,-10 v -44 z" />
  <path
     id="shadow-topleft"
     style="fill:url(#radialGradient882-1);fill-opacity:1"
     d="m 130,-5.000004 v 54 h 44 c 0.0133,-5.529132 4.46951,-9.98972 10,-10 v -44 z" />
</svg>
